EESchema Schematic File Version 2
LIBS:power
LIBS:MyKiCadLibs-Lib
LIBS:ADC-PCM4202-SE-cache
EELAYER 25 0
EELAYER END
$Descr A4 11693 8268
encoding utf-8
Sheet 4 4
Title "PCM4202 ADC - Single Ended Inputs"
Date "2016-04-11"
Rev "1.1"
Comp "Open Hardware DSP Platform - www.ohdsp.org"
Comment1 "MERCHANTABILITY, SATISFACTORY QUALITY AND FITNESS FOR A PARTICULAR PURPOSE."
Comment2 "is distributed WITHOUT ANY EXPRESS OR IMPLIED WARRANTY, INCLUDING OF"
Comment3 "Licensed under the TAPR Open Hardware License (www.tapr.org/OHL). This documentation"
Comment4 "Copyright Paul Janicki 2016"
$EndDescr
$Comp
L GNDA #PWR068
U 1 1 568EB091
P 1000 3000
F 0 "#PWR068" H 1000 2750 50  0001 C CNN
F 1 "GNDA" H 1000 2850 50  0000 C CNN
F 2 "" H 1000 3000 60  0000 C CNN
F 3 "" H 1000 3000 60  0000 C CNN
	1    1000 3000
	-1   0    0    -1  
$EndComp
$Comp
L IC-OPAMP-DUAL-SOIC8 U401
U 1 1 568EB10D
P 4750 1750
F 0 "U401" H 4800 1600 60  0000 L CNN
F 1 "TLE2072" H 4800 1500 60  0000 L CNN
F 2 "MyKiCadLibs-Footprints:IC_SOIC_8" H 4750 1750 60  0001 C CNN
F 3 "" H 4750 1750 60  0000 C CNN
F 4 "LOW-NOISE HIGH-SPEED JFET-INPUT OPERATIONAL AMPLIFIERS - DUAL" H 4750 1750 60  0001 C CNN "Description"
	1    4750 1750
	1    0    0    -1  
$EndComp
$Comp
L IC-OPAMP-DUAL-SOIC8 U401
U 2 1 568EB158
P 4750 2600
F 0 "U401" H 4800 2450 60  0000 L CNN
F 1 "TLE2072" H 4800 2350 60  0000 L CNN
F 2 "MyKiCadLibs-Footprints:IC_SOIC_8" H 4750 2600 60  0001 C CNN
F 3 "" H 4750 2600 60  0000 C CNN
F 4 "LOW-NOISE HIGH-SPEED JFET-INPUT OPERATIONAL AMPLIFIERS - DUAL" H 4750 2600 60  0001 C CNN "Description"
	2    4750 2600
	1    0    0    -1  
$EndComp
$Comp
L +9VA #PWR069
U 1 1 568ED281
P 4750 1350
F 0 "#PWR069" H 4750 1225 50  0001 C CNN
F 1 "+9VA" H 4750 1500 50  0000 C CNN
F 2 "" H 4750 1350 50  0000 C CNN
F 3 "" H 4750 1350 50  0000 C CNN
	1    4750 1350
	1    0    0    -1  
$EndComp
$Comp
L -9VA #PWR070
U 1 1 568ED3B2
P 4750 2150
F 0 "#PWR070" H 4750 2025 50  0001 C CNN
F 1 "-9VA" H 4750 2300 50  0000 C CNN
F 2 "" H 4750 2150 50  0000 C CNN
F 3 "" H 4750 2150 50  0000 C CNN
	1    4750 2150
	-1   0    0    1   
$EndComp
$Comp
L IC-OPAMP-SINGLE-SOIC8 U403
U 1 1 568EECF9
P 8750 2150
F 0 "U403" H 8800 2400 60  0000 L CNN
F 1 "TLE2071" H 8800 2300 60  0000 L CNN
F 2 "MyKiCadLibs-Footprints:IC_SOIC_8" H 8750 2150 60  0001 C CNN
F 3 "" H 8750 2150 60  0000 C CNN
F 4 "LOW-NOISE HIGH-SPEED JFET-INPUT OPERATIONAL AMPLIFIERS - SINGLE" H 8750 2150 60  0001 C CNN "Description"
	1    8750 2150
	1    0    0    -1  
$EndComp
$Comp
L GNDA #PWR071
U 1 1 568F2111
P 1550 2450
F 0 "#PWR071" H 1550 2200 50  0001 C CNN
F 1 "GNDA" H 1550 2300 50  0000 C CNN
F 2 "" H 1550 2450 60  0000 C CNN
F 3 "" H 1550 2450 60  0000 C CNN
	1    1550 2450
	-1   0    0    -1  
$EndComp
$Comp
L -9VA #PWR072
U 1 1 568F220E
P 1250 3000
F 0 "#PWR072" H 1250 2875 50  0001 C CNN
F 1 "-9VA" H 1250 3150 50  0000 C CNN
F 2 "" H 1250 3000 50  0000 C CNN
F 3 "" H 1250 3000 50  0000 C CNN
	1    1250 3000
	-1   0    0    1   
$EndComp
$Comp
L +9VA #PWR073
U 1 1 568F225E
P 1000 2400
F 0 "#PWR073" H 1000 2275 50  0001 C CNN
F 1 "+9VA" H 1000 2550 50  0000 C CNN
F 2 "" H 1000 2400 50  0000 C CNN
F 3 "" H 1000 2400 50  0000 C CNN
	1    1000 2400
	1    0    0    -1  
$EndComp
$Comp
L +9VA #PWR074
U 1 1 568F5EA6
P 3050 2550
F 0 "#PWR074" H 3050 2425 50  0001 C CNN
F 1 "+9VA" H 3050 2700 50  0000 C CNN
F 2 "" H 3050 2550 50  0000 C CNN
F 3 "" H 3050 2550 50  0000 C CNN
	1    3050 2550
	1    0    0    -1  
$EndComp
$Comp
L -9VA #PWR075
U 1 1 568F6246
P 3050 3250
F 0 "#PWR075" H 3050 3125 50  0001 C CNN
F 1 "-9VA" H 3050 3400 50  0000 C CNN
F 2 "" H 3050 3250 50  0000 C CNN
F 3 "" H 3050 3250 50  0000 C CNN
	1    3050 3250
	-1   0    0    1   
$EndComp
$Comp
L GNDA #PWR076
U 1 1 568F801E
P 8300 3550
F 0 "#PWR076" H 8300 3300 50  0001 C CNN
F 1 "GNDA" H 8300 3400 50  0000 C CNN
F 2 "" H 8300 3550 60  0000 C CNN
F 3 "" H 8300 3550 60  0000 C CNN
	1    8300 3550
	-1   0    0    -1  
$EndComp
$Comp
L -9VA #PWR077
U 1 1 568F8030
P 8750 2550
F 0 "#PWR077" H 8750 2425 50  0001 C CNN
F 1 "-9VA" H 8750 2700 50  0000 C CNN
F 2 "" H 8750 2550 50  0000 C CNN
F 3 "" H 8750 2550 50  0000 C CNN
	1    8750 2550
	-1   0    0    1   
$EndComp
$Comp
L GNDA #PWR078
U 1 1 568F8036
P 8900 3050
F 0 "#PWR078" H 8900 2800 50  0001 C CNN
F 1 "GNDA" H 8900 2900 50  0000 C CNN
F 2 "" H 8900 3050 60  0000 C CNN
F 3 "" H 8900 3050 60  0000 C CNN
	1    8900 3050
	-1   0    0    -1  
$EndComp
$Comp
L -9VA #PWR079
U 1 1 568F803C
P 8600 3550
F 0 "#PWR079" H 8600 3425 50  0001 C CNN
F 1 "-9VA" H 8600 3700 50  0000 C CNN
F 2 "" H 8600 3550 50  0000 C CNN
F 3 "" H 8600 3550 50  0000 C CNN
	1    8600 3550
	-1   0    0    1   
$EndComp
$Comp
L +9VA #PWR080
U 1 1 568F8042
P 8300 2950
F 0 "#PWR080" H 8300 2825 50  0001 C CNN
F 1 "+9VA" H 8300 3100 50  0000 C CNN
F 2 "" H 8300 2950 50  0000 C CNN
F 3 "" H 8300 2950 50  0000 C CNN
	1    8300 2950
	1    0    0    -1  
$EndComp
$Comp
L +9VA #PWR081
U 1 1 568F804E
P 9650 2900
F 0 "#PWR081" H 9650 2775 50  0001 C CNN
F 1 "+9VA" H 9650 3050 50  0000 C CNN
F 2 "" H 9650 2900 50  0000 C CNN
F 3 "" H 9650 2900 50  0000 C CNN
	1    9650 2900
	1    0    0    -1  
$EndComp
$Comp
L -9VA #PWR082
U 1 1 568F8054
P 9650 3600
F 0 "#PWR082" H 9650 3475 50  0001 C CNN
F 1 "-9VA" H 9650 3750 50  0000 C CNN
F 2 "" H 9650 3600 50  0000 C CNN
F 3 "" H 9650 3600 50  0000 C CNN
	1    9650 3600
	-1   0    0    1   
$EndComp
$Comp
L GNDA #PWR083
U 1 1 568F8E87
P 10250 2800
F 0 "#PWR083" H 10250 2550 50  0001 C CNN
F 1 "GNDA" H 10250 2650 50  0000 C CNN
F 2 "" H 10250 2800 60  0000 C CNN
F 3 "" H 10250 2800 60  0000 C CNN
	1    10250 2800
	-1   0    0    -1  
$EndComp
Text Label 10800 2150 2    60   ~ 0
VCML
Text Label 2600 1650 0    60   ~ 0
VCML
$Comp
L +9VA #PWR084
U 1 1 568FAD8A
P 8750 1750
F 0 "#PWR084" H 8750 1625 50  0001 C CNN
F 1 "+9VA" H 8750 1900 50  0000 C CNN
F 2 "" H 8750 1750 50  0000 C CNN
F 3 "" H 8750 1750 50  0000 C CNN
	1    8750 1750
	1    0    0    -1  
$EndComp
Text HLabel 6950 2050 0    60   Input ~ 0
VCOML
$Comp
L GNDA #PWR085
U 1 1 568FC102
P 7650 2700
F 0 "#PWR085" H 7650 2450 50  0001 C CNN
F 1 "GNDA" H 7650 2550 50  0000 C CNN
F 2 "" H 7650 2700 60  0000 C CNN
F 3 "" H 7650 2700 60  0000 C CNN
	1    7650 2700
	-1   0    0    -1  
$EndComp
Text HLabel 6850 1750 2    60   Output ~ 0
ANAL+
Text HLabel 6850 2600 2    60   Output ~ 0
ANAL-
$Comp
L GNDA #PWR086
U 1 1 568FD8A6
P 1300 2050
F 0 "#PWR086" H 1300 1800 50  0001 C CNN
F 1 "GNDA" H 1300 1900 50  0000 C CNN
F 2 "" H 1300 2050 60  0000 C CNN
F 3 "" H 1300 2050 60  0000 C CNN
	1    1300 2050
	-1   0    0    -1  
$EndComp
$Comp
L GNDA #PWR087
U 1 1 568EBEF5
P 1050 6500
F 0 "#PWR087" H 1050 6250 50  0001 C CNN
F 1 "GNDA" H 1050 6350 50  0000 C CNN
F 2 "" H 1050 6500 60  0000 C CNN
F 3 "" H 1050 6500 60  0000 C CNN
	1    1050 6500
	-1   0    0    -1  
$EndComp
$Comp
L IC-OPAMP-DUAL-SOIC8 U402
U 1 1 568EBF07
P 4750 5100
F 0 "U402" H 4800 4950 60  0000 L CNN
F 1 "TLE2072" H 4800 4850 60  0000 L CNN
F 2 "MyKiCadLibs-Footprints:IC_SOIC_8" H 4750 5100 60  0001 C CNN
F 3 "" H 4750 5100 60  0000 C CNN
F 4 "LOW-NOISE HIGH-SPEED JFET-INPUT OPERATIONAL AMPLIFIERS - DUAL" H 4750 5100 60  0001 C CNN "Description"
	1    4750 5100
	1    0    0    -1  
$EndComp
$Comp
L IC-OPAMP-DUAL-SOIC8 U402
U 2 1 568EBF0D
P 4750 5950
F 0 "U402" H 4800 5800 60  0000 L CNN
F 1 "TLE2072" H 4800 5700 60  0000 L CNN
F 2 "MyKiCadLibs-Footprints:IC_SOIC_8" H 4750 5950 60  0001 C CNN
F 3 "" H 4750 5950 60  0000 C CNN
F 4 "LOW-NOISE HIGH-SPEED JFET-INPUT OPERATIONAL AMPLIFIERS - DUAL" H 4750 5950 60  0001 C CNN "Description"
	2    4750 5950
	1    0    0    -1  
$EndComp
$Comp
L +9VA #PWR088
U 1 1 568EBF13
P 4750 4700
F 0 "#PWR088" H 4750 4575 50  0001 C CNN
F 1 "+9VA" H 4750 4850 50  0000 C CNN
F 2 "" H 4750 4700 50  0000 C CNN
F 3 "" H 4750 4700 50  0000 C CNN
	1    4750 4700
	1    0    0    -1  
$EndComp
$Comp
L -9VA #PWR089
U 1 1 568EBF19
P 4750 5500
F 0 "#PWR089" H 4750 5375 50  0001 C CNN
F 1 "-9VA" H 4750 5650 50  0000 C CNN
F 2 "" H 4750 5500 50  0000 C CNN
F 3 "" H 4750 5500 50  0000 C CNN
	1    4750 5500
	-1   0    0    1   
$EndComp
$Comp
L GNDA #PWR090
U 1 1 568EBF37
P 1650 6000
F 0 "#PWR090" H 1650 5750 50  0001 C CNN
F 1 "GNDA" H 1650 5850 50  0000 C CNN
F 2 "" H 1650 6000 60  0000 C CNN
F 3 "" H 1650 6000 60  0000 C CNN
	1    1650 6000
	-1   0    0    -1  
$EndComp
$Comp
L -9VA #PWR091
U 1 1 568EBF3D
P 1350 6500
F 0 "#PWR091" H 1350 6375 50  0001 C CNN
F 1 "-9VA" H 1350 6650 50  0000 C CNN
F 2 "" H 1350 6500 50  0000 C CNN
F 3 "" H 1350 6500 50  0000 C CNN
	1    1350 6500
	-1   0    0    1   
$EndComp
$Comp
L +9VA #PWR092
U 1 1 568EBF43
P 1050 5900
F 0 "#PWR092" H 1050 5775 50  0001 C CNN
F 1 "+9VA" H 1050 6050 50  0000 C CNN
F 2 "" H 1050 5900 50  0000 C CNN
F 3 "" H 1050 5900 50  0000 C CNN
	1    1050 5900
	1    0    0    -1  
$EndComp
$Comp
L +9VA #PWR093
U 1 1 568EBFB5
P 2900 6000
F 0 "#PWR093" H 2900 5875 50  0001 C CNN
F 1 "+9VA" H 2900 6150 50  0000 C CNN
F 2 "" H 2900 6000 50  0000 C CNN
F 3 "" H 2900 6000 50  0000 C CNN
	1    2900 6000
	1    0    0    -1  
$EndComp
$Comp
L -9VA #PWR094
U 1 1 568EBFBB
P 2900 6700
F 0 "#PWR094" H 2900 6575 50  0001 C CNN
F 1 "-9VA" H 2900 6850 50  0000 C CNN
F 2 "" H 2900 6700 50  0000 C CNN
F 3 "" H 2900 6700 50  0000 C CNN
	1    2900 6700
	-1   0    0    1   
$EndComp
Text Label 2850 5000 0    60   ~ 0
VCMR
Text HLabel 6850 5100 2    60   Output ~ 0
ANAR+
Text HLabel 6850 5950 2    60   Output ~ 0
ANAR-
$Comp
L GNDA #PWR095
U 1 1 568EBFFD
P 1350 5400
F 0 "#PWR095" H 1350 5150 50  0001 C CNN
F 1 "GNDA" H 1350 5250 50  0000 C CNN
F 2 "" H 1350 5400 60  0000 C CNN
F 3 "" H 1350 5400 60  0000 C CNN
	1    1350 5400
	-1   0    0    -1  
$EndComp
$Comp
L IC-OPAMP-SINGLE-SOIC8 U404
U 1 1 568ED19F
P 8750 4650
F 0 "U404" H 8800 4900 60  0000 L CNN
F 1 "TLE2071" H 8800 4800 60  0000 L CNN
F 2 "MyKiCadLibs-Footprints:IC_SOIC_8" H 8750 4650 60  0001 C CNN
F 3 "" H 8750 4650 60  0000 C CNN
F 4 "LOW-NOISE HIGH-SPEED JFET-INPUT OPERATIONAL AMPLIFIERS - SINGLE" H 8750 4650 60  0001 C CNN "Description"
	1    8750 4650
	1    0    0    -1  
$EndComp
$Comp
L GNDA #PWR096
U 1 1 568ED1B7
P 8300 6050
F 0 "#PWR096" H 8300 5800 50  0001 C CNN
F 1 "GNDA" H 8300 5900 50  0000 C CNN
F 2 "" H 8300 6050 60  0000 C CNN
F 3 "" H 8300 6050 60  0000 C CNN
	1    8300 6050
	-1   0    0    -1  
$EndComp
$Comp
L -9VA #PWR097
U 1 1 568ED1C9
P 8750 5050
F 0 "#PWR097" H 8750 4925 50  0001 C CNN
F 1 "-9VA" H 8750 5200 50  0000 C CNN
F 2 "" H 8750 5050 50  0000 C CNN
F 3 "" H 8750 5050 50  0000 C CNN
	1    8750 5050
	-1   0    0    1   
$EndComp
$Comp
L GNDA #PWR098
U 1 1 568ED1CF
P 8900 5550
F 0 "#PWR098" H 8900 5300 50  0001 C CNN
F 1 "GNDA" H 8900 5400 50  0000 C CNN
F 2 "" H 8900 5550 60  0000 C CNN
F 3 "" H 8900 5550 60  0000 C CNN
	1    8900 5550
	-1   0    0    -1  
$EndComp
$Comp
L -9VA #PWR099
U 1 1 568ED1D5
P 8600 6050
F 0 "#PWR099" H 8600 5925 50  0001 C CNN
F 1 "-9VA" H 8600 6200 50  0000 C CNN
F 2 "" H 8600 6050 50  0000 C CNN
F 3 "" H 8600 6050 50  0000 C CNN
	1    8600 6050
	-1   0    0    1   
$EndComp
$Comp
L +9VA #PWR0100
U 1 1 568ED1DB
P 8300 5450
F 0 "#PWR0100" H 8300 5325 50  0001 C CNN
F 1 "+9VA" H 8300 5600 50  0000 C CNN
F 2 "" H 8300 5450 50  0000 C CNN
F 3 "" H 8300 5450 50  0000 C CNN
	1    8300 5450
	1    0    0    -1  
$EndComp
$Comp
L +9VA #PWR0101
U 1 1 568ED1E7
P 9650 5400
F 0 "#PWR0101" H 9650 5275 50  0001 C CNN
F 1 "+9VA" H 9650 5550 50  0000 C CNN
F 2 "" H 9650 5400 50  0000 C CNN
F 3 "" H 9650 5400 50  0000 C CNN
	1    9650 5400
	1    0    0    -1  
$EndComp
$Comp
L -9VA #PWR0102
U 1 1 568ED1ED
P 9650 6100
F 0 "#PWR0102" H 9650 5975 50  0001 C CNN
F 1 "-9VA" H 9650 6250 50  0000 C CNN
F 2 "" H 9650 6100 50  0000 C CNN
F 3 "" H 9650 6100 50  0000 C CNN
	1    9650 6100
	-1   0    0    1   
$EndComp
$Comp
L GNDA #PWR0103
U 1 1 568ED21B
P 10250 5300
F 0 "#PWR0103" H 10250 5050 50  0001 C CNN
F 1 "GNDA" H 10250 5150 50  0000 C CNN
F 2 "" H 10250 5300 60  0000 C CNN
F 3 "" H 10250 5300 60  0000 C CNN
	1    10250 5300
	-1   0    0    -1  
$EndComp
Text Label 10800 4650 2    60   ~ 0
VCMR
$Comp
L +9VA #PWR0104
U 1 1 568ED227
P 8750 4250
F 0 "#PWR0104" H 8750 4125 50  0001 C CNN
F 1 "+9VA" H 8750 4400 50  0000 C CNN
F 2 "" H 8750 4250 50  0000 C CNN
F 3 "" H 8750 4250 50  0000 C CNN
	1    8750 4250
	1    0    0    -1  
$EndComp
Text HLabel 6950 4550 0    60   Input ~ 0
VCOMR
$Comp
L GNDA #PWR0105
U 1 1 568ED245
P 7650 5200
F 0 "#PWR0105" H 7650 4950 50  0001 C CNN
F 1 "GNDA" H 7650 5050 50  0000 C CNN
F 2 "" H 7650 5200 60  0000 C CNN
F 3 "" H 7650 5200 60  0000 C CNN
	1    7650 5200
	-1   0    0    -1  
$EndComp
$Comp
L GNDA #PWR0106
U 1 1 56985D71
P 2150 2500
F 0 "#PWR0106" H 2150 2250 50  0001 C CNN
F 1 "GNDA" H 2150 2350 50  0000 C CNN
F 2 "" H 2150 2500 60  0000 C CNN
F 3 "" H 2150 2500 60  0000 C CNN
	1    2150 2500
	-1   0    0    -1  
$EndComp
Wire Wire Line
	1000 3000 1000 2900
Wire Wire Line
	1000 2500 1000 2400
Wire Wire Line
	1250 2400 1250 2500
Wire Wire Line
	1250 2900 1250 3000
Wire Wire Line
	3850 1650 4250 1650
Wire Wire Line
	1550 2450 1550 2400
Wire Wire Line
	4750 1350 4750 1400
Wire Wire Line
	4750 2150 4750 2100
Wire Wire Line
	5250 1750 5450 1750
Wire Wire Line
	5300 800  5300 1750
Wire Wire Line
	5300 1000 4650 1000
Connection ~ 5300 1750
Wire Wire Line
	5950 1750 6250 1750
Wire Wire Line
	3850 1850 4250 1850
Wire Wire Line
	4150 800  4150 1850
Wire Wire Line
	4150 1000 4250 1000
Wire Wire Line
	4250 800  4150 800 
Connection ~ 4150 1000
Wire Wire Line
	3200 1850 3350 1850
Wire Wire Line
	3200 2150 3250 2150
Wire Wire Line
	3250 2150 3250 1850
Connection ~ 3250 1850
Wire Wire Line
	4150 2700 4150 3300
Wire Wire Line
	4150 2700 4250 2700
Wire Wire Line
	4150 3100 4250 3100
Connection ~ 5300 2600
Wire Wire Line
	5250 2600 5450 2600
Wire Wire Line
	5950 2600 6250 2600
Wire Wire Line
	6150 2000 6150 1750
Connection ~ 6150 1750
Wire Wire Line
	6150 2400 6150 2600
Connection ~ 6150 2600
Wire Wire Line
	3050 3050 3050 3250
Wire Wire Line
	3050 2550 3050 2650
Wire Wire Line
	2550 2600 3050 2600
Wire Wire Line
	2800 2600 2800 2650
Connection ~ 3050 2600
Wire Wire Line
	2550 2600 2550 2650
Connection ~ 2800 2600
Wire Wire Line
	2800 3050 2800 3200
Wire Wire Line
	2550 3200 3050 3200
Connection ~ 3050 3200
Wire Wire Line
	2550 3050 2550 3200
Connection ~ 2800 3200
Wire Wire Line
	1800 1850 2800 1850
Wire Wire Line
	2750 1850 2750 2150
Wire Wire Line
	2750 2150 2800 2150
Wire Wire Line
	8300 3550 8300 3450
Wire Wire Line
	8300 3050 8300 2950
Wire Wire Line
	8600 3000 8600 3050
Wire Wire Line
	8600 3450 8600 3550
Wire Wire Line
	8900 3050 8900 3000
Wire Wire Line
	8900 3000 8600 3000
Wire Wire Line
	9650 3400 9650 3600
Wire Wire Line
	9650 2900 9650 3000
Wire Wire Line
	9150 2950 9650 2950
Wire Wire Line
	9400 2950 9400 3000
Connection ~ 9650 2950
Wire Wire Line
	9150 2950 9150 3000
Connection ~ 9400 2950
Wire Wire Line
	9400 3400 9400 3550
Wire Wire Line
	9150 3550 9650 3550
Connection ~ 9650 3550
Wire Wire Line
	9150 3400 9150 3550
Connection ~ 9400 3550
Wire Wire Line
	8750 2550 8750 2500
Wire Wire Line
	8250 2250 8200 2250
Wire Wire Line
	8200 2250 8200 2750
Wire Wire Line
	8200 2750 9350 2750
Wire Wire Line
	9350 2750 9350 2150
Wire Wire Line
	9250 2150 9650 2150
Wire Wire Line
	10550 2150 10550 2250
Wire Wire Line
	10150 2150 10800 2150
Wire Wire Line
	10800 2150 10800 2250
Connection ~ 10550 2150
Wire Wire Line
	10550 2650 10550 2750
Wire Wire Line
	10800 2750 10800 2650
Wire Wire Line
	10250 2750 10800 2750
Connection ~ 10550 2750
Connection ~ 9350 2150
Wire Wire Line
	8750 1750 8750 1800
Wire Wire Line
	7050 2050 6950 2050
Wire Wire Line
	7550 2050 8250 2050
Wire Wire Line
	7650 2150 7650 2050
Wire Wire Line
	7900 2050 7900 2150
Wire Wire Line
	7650 2550 7650 2700
Wire Wire Line
	7900 2550 7900 2650
Wire Wire Line
	7900 2650 7650 2650
Connection ~ 7650 2650
Connection ~ 7650 2050
Connection ~ 7900 2050
Wire Wire Line
	6850 1750 6750 1750
Wire Wire Line
	6850 2600 6750 2600
Connection ~ 2750 1850
Wire Wire Line
	1050 6500 1050 6400
Wire Wire Line
	1050 6000 1050 5900
Wire Wire Line
	1350 5950 1350 6000
Wire Wire Line
	1350 6400 1350 6500
Wire Wire Line
	3850 5000 4250 5000
Wire Wire Line
	1650 6000 1650 5950
Wire Wire Line
	1650 5950 1350 5950
Wire Wire Line
	4750 4700 4750 4750
Wire Wire Line
	4750 5500 4750 5450
Wire Wire Line
	5250 5100 5450 5100
Wire Wire Line
	5300 4250 5300 5100
Wire Wire Line
	5300 4450 4650 4450
Connection ~ 5300 5100
Wire Wire Line
	5950 5100 6250 5100
Wire Wire Line
	3850 5200 4250 5200
Wire Wire Line
	4150 4250 4150 5200
Wire Wire Line
	4150 4450 4250 4450
Wire Wire Line
	4250 4250 4150 4250
Connection ~ 4150 4450
Wire Wire Line
	3200 5200 3350 5200
Wire Wire Line
	3200 5500 3250 5500
Wire Wire Line
	3250 5500 3250 5200
Connection ~ 3250 5200
Wire Wire Line
	4150 6050 4150 6650
Wire Wire Line
	4150 6050 4250 6050
Wire Wire Line
	4150 6450 4250 6450
Connection ~ 5300 5950
Wire Wire Line
	5250 5950 5450 5950
Wire Wire Line
	5950 5950 6250 5950
Wire Wire Line
	6150 5250 6150 5100
Connection ~ 6150 5100
Wire Wire Line
	6150 5650 6150 5950
Connection ~ 6150 5950
Wire Wire Line
	2900 6500 2900 6700
Wire Wire Line
	2900 6000 2900 6100
Wire Wire Line
	2400 6050 2900 6050
Wire Wire Line
	2650 6050 2650 6100
Connection ~ 2900 6050
Wire Wire Line
	2400 6050 2400 6100
Connection ~ 2650 6050
Wire Wire Line
	2650 6500 2650 6650
Wire Wire Line
	2400 6650 2900 6650
Connection ~ 2900 6650
Wire Wire Line
	2400 6500 2400 6650
Connection ~ 2650 6650
Wire Wire Line
	1850 5200 2800 5200
Wire Wire Line
	2750 5200 2750 5500
Wire Wire Line
	2750 5500 2800 5500
Wire Wire Line
	6850 5100 6750 5100
Wire Wire Line
	6850 5950 6750 5950
Connection ~ 2750 5200
Wire Wire Line
	8300 6050 8300 5950
Wire Wire Line
	8300 5550 8300 5450
Wire Wire Line
	8600 5500 8600 5550
Wire Wire Line
	8600 5950 8600 6050
Wire Wire Line
	8900 5550 8900 5500
Wire Wire Line
	8900 5500 8600 5500
Wire Wire Line
	9650 5900 9650 6100
Wire Wire Line
	9650 5400 9650 5500
Wire Wire Line
	9150 5450 9650 5450
Wire Wire Line
	9400 5450 9400 5500
Connection ~ 9650 5450
Wire Wire Line
	9150 5450 9150 5500
Connection ~ 9400 5450
Wire Wire Line
	9400 5900 9400 6050
Wire Wire Line
	9150 6050 9650 6050
Connection ~ 9650 6050
Wire Wire Line
	9150 5900 9150 6050
Connection ~ 9400 6050
Wire Wire Line
	8750 5050 8750 5000
Wire Wire Line
	8250 4750 8200 4750
Wire Wire Line
	8200 4750 8200 5250
Wire Wire Line
	8200 5250 9350 5250
Wire Wire Line
	9350 5250 9350 4650
Wire Wire Line
	9250 4650 9650 4650
Wire Wire Line
	10550 4650 10550 4750
Wire Wire Line
	10150 4650 10800 4650
Wire Wire Line
	10800 4650 10800 4750
Connection ~ 10550 4650
Wire Wire Line
	10550 5150 10550 5250
Wire Wire Line
	10800 5250 10800 5150
Wire Wire Line
	10250 5250 10800 5250
Connection ~ 10550 5250
Connection ~ 9350 4650
Wire Wire Line
	8750 4250 8750 4300
Wire Wire Line
	7050 4550 6950 4550
Wire Wire Line
	7550 4550 8250 4550
Wire Wire Line
	7650 4650 7650 4550
Wire Wire Line
	7900 4550 7900 4650
Wire Wire Line
	7650 5050 7650 5200
Wire Wire Line
	7900 5050 7900 5150
Wire Wire Line
	7900 5150 7650 5150
Connection ~ 7650 5150
Connection ~ 7650 4550
Connection ~ 7900 4550
Wire Wire Line
	10250 2650 10250 2800
Connection ~ 10250 2750
Wire Wire Line
	10250 2250 10250 2150
Connection ~ 10250 2150
Wire Wire Line
	10250 5150 10250 5300
Connection ~ 10250 5250
Wire Wire Line
	10250 4750 10250 4650
Connection ~ 10250 4650
Wire Wire Line
	2150 2000 2150 1850
Connection ~ 2150 1850
Wire Wire Line
	2150 5300 2150 5200
Connection ~ 2150 5200
Wire Wire Line
	5300 2600 5300 3100
Wire Wire Line
	5300 3100 4750 3100
Wire Wire Line
	4750 800  5300 800 
Connection ~ 5300 1000
Wire Wire Line
	1250 1850 1300 1850
Wire Wire Line
	1300 2050 1300 1950
Wire Wire Line
	1300 1950 1250 1950
Wire Wire Line
	3950 2500 4250 2500
Wire Wire Line
	2150 2500 2150 2400
Wire Wire Line
	4150 3300 4250 3300
Connection ~ 4150 3100
Wire Wire Line
	1550 2400 1250 2400
Wire Wire Line
	4750 3300 5400 3300
Connection ~ 5400 1750
Wire Wire Line
	2600 1650 3350 1650
Connection ~ 4150 1850
Text Label 3200 2500 0    60   ~ 0
VCML
Wire Wire Line
	3200 2500 3450 2500
Wire Wire Line
	5400 3300 5400 1750
Wire Wire Line
	1300 5200 1350 5200
Wire Wire Line
	1350 5400 1350 5300
Wire Wire Line
	1350 5300 1300 5300
$Comp
L GNDA #PWR0107
U 1 1 569930A4
P 2150 5800
F 0 "#PWR0107" H 2150 5550 50  0001 C CNN
F 1 "GNDA" H 2150 5650 50  0000 C CNN
F 2 "" H 2150 5800 60  0000 C CNN
F 3 "" H 2150 5800 60  0000 C CNN
	1    2150 5800
	-1   0    0    -1  
$EndComp
Wire Wire Line
	2150 5800 2150 5700
Wire Wire Line
	4750 4250 5300 4250
Connection ~ 5300 4450
Connection ~ 4150 5200
Wire Wire Line
	2850 5000 3350 5000
Wire Wire Line
	4750 6450 5300 6450
Wire Wire Line
	5300 6450 5300 5950
Wire Wire Line
	4150 6650 4250 6650
Connection ~ 4150 6450
Text Label 3150 5850 0    60   ~ 0
VCMR
Wire Wire Line
	3150 5850 3550 5850
Wire Wire Line
	4050 5850 4250 5850
Wire Wire Line
	4750 6650 5400 6650
Wire Wire Line
	5400 6650 5400 5100
Connection ~ 5400 5100
Wire Wire Line
	6050 1600 6050 1750
Connection ~ 6050 1750
$Comp
L GNDA #PWR0108
U 1 1 5699B269
P 6350 1350
F 0 "#PWR0108" H 6350 1100 50  0001 C CNN
F 1 "GNDA" H 6350 1200 50  0000 C CNN
F 2 "" H 6350 1350 60  0000 C CNN
F 3 "" H 6350 1350 60  0000 C CNN
	1    6350 1350
	-1   0    0    -1  
$EndComp
Wire Wire Line
	6350 1350 6350 1150
Wire Wire Line
	6350 1150 6050 1150
Wire Wire Line
	6050 1150 6050 1200
Wire Wire Line
	6050 4950 6050 5100
$Comp
L GNDA #PWR0109
U 1 1 5699C02B
P 6350 4700
F 0 "#PWR0109" H 6350 4450 50  0001 C CNN
F 1 "GNDA" H 6350 4550 50  0000 C CNN
F 2 "" H 6350 4700 60  0000 C CNN
F 3 "" H 6350 4700 60  0000 C CNN
	1    6350 4700
	-1   0    0    -1  
$EndComp
Wire Wire Line
	6350 4700 6350 4500
Wire Wire Line
	6350 4500 6050 4500
Wire Wire Line
	6050 4500 6050 4550
Connection ~ 6050 5100
Wire Wire Line
	6050 6100 6050 5950
Connection ~ 6050 5950
$Comp
L GNDA #PWR0110
U 1 1 5699C916
P 6050 6600
F 0 "#PWR0110" H 6050 6350 50  0001 C CNN
F 1 "GNDA" H 6050 6450 50  0000 C CNN
F 2 "" H 6050 6600 60  0000 C CNN
F 3 "" H 6050 6600 60  0000 C CNN
	1    6050 6600
	-1   0    0    -1  
$EndComp
Wire Wire Line
	6050 6600 6050 6500
Wire Wire Line
	6050 2750 6050 2600
$Comp
L GNDA #PWR0111
U 1 1 5699D4DA
P 6050 3250
F 0 "#PWR0111" H 6050 3000 50  0001 C CNN
F 1 "GNDA" H 6050 3100 50  0000 C CNN
F 2 "" H 6050 3250 60  0000 C CNN
F 3 "" H 6050 3250 60  0000 C CNN
	1    6050 3250
	-1   0    0    -1  
$EndComp
Wire Wire Line
	6050 3250 6050 3150
Connection ~ 6050 2600
$Comp
L GNDA #PWR0112
U 1 1 5698DC37
P 2650 1350
F 0 "#PWR0112" H 2650 1100 50  0001 C CNN
F 1 "GNDA" H 2650 1200 50  0000 C CNN
F 2 "" H 2650 1350 60  0000 C CNN
F 3 "" H 2650 1350 60  0000 C CNN
	1    2650 1350
	-1   0    0    -1  
$EndComp
Wire Wire Line
	2650 1350 2650 1300
Text Label 2350 850  0    60   ~ 0
VCML
Wire Wire Line
	2350 850  3450 850 
Wire Wire Line
	2650 850  2650 900 
Wire Wire Line
	2900 850  2900 900 
Connection ~ 2650 850 
$Comp
L GNDA #PWR0113
U 1 1 5698E383
P 2900 1350
F 0 "#PWR0113" H 2900 1100 50  0001 C CNN
F 1 "GNDA" H 2900 1200 50  0000 C CNN
F 2 "" H 2900 1350 60  0000 C CNN
F 3 "" H 2900 1350 60  0000 C CNN
	1    2900 1350
	-1   0    0    -1  
$EndComp
Wire Wire Line
	2900 1350 2900 1300
$Comp
L GNDA #PWR0114
U 1 1 5698EC6D
P 2700 4600
F 0 "#PWR0114" H 2700 4350 50  0001 C CNN
F 1 "GNDA" H 2700 4450 50  0000 C CNN
F 2 "" H 2700 4600 60  0000 C CNN
F 3 "" H 2700 4600 60  0000 C CNN
	1    2700 4600
	-1   0    0    -1  
$EndComp
Wire Wire Line
	2700 4600 2700 4550
Wire Wire Line
	2400 4100 3500 4100
Wire Wire Line
	2700 4100 2700 4150
Wire Wire Line
	2950 4100 2950 4150
Connection ~ 2700 4100
$Comp
L GNDA #PWR0115
U 1 1 5698EC7F
P 2950 4600
F 0 "#PWR0115" H 2950 4350 50  0001 C CNN
F 1 "GNDA" H 2950 4450 50  0000 C CNN
F 2 "" H 2950 4600 60  0000 C CNN
F 3 "" H 2950 4600 60  0000 C CNN
	1    2950 4600
	-1   0    0    -1  
$EndComp
Wire Wire Line
	2950 4600 2950 4550
Text Label 2400 4100 0    60   ~ 0
VCMR
$Comp
L GNDA #PWR0116
U 1 1 5698F2FA
P 3250 4600
F 0 "#PWR0116" H 3250 4350 50  0001 C CNN
F 1 "GNDA" H 3250 4450 50  0000 C CNN
F 2 "" H 3250 4600 60  0000 C CNN
F 3 "" H 3250 4600 60  0000 C CNN
	1    3250 4600
	-1   0    0    -1  
$EndComp
Wire Wire Line
	3250 4600 3250 4550
Wire Wire Line
	3250 4100 3250 4150
Wire Wire Line
	3500 4100 3500 4150
Connection ~ 3250 4100
$Comp
L GNDA #PWR0117
U 1 1 5698F30B
P 3500 4600
F 0 "#PWR0117" H 3500 4350 50  0001 C CNN
F 1 "GNDA" H 3500 4450 50  0000 C CNN
F 2 "" H 3500 4600 60  0000 C CNN
F 3 "" H 3500 4600 60  0000 C CNN
	1    3500 4600
	-1   0    0    -1  
$EndComp
Wire Wire Line
	3500 4600 3500 4550
Connection ~ 2950 4100
$Comp
L GNDA #PWR0118
U 1 1 56990117
P 3200 1350
F 0 "#PWR0118" H 3200 1100 50  0001 C CNN
F 1 "GNDA" H 3200 1200 50  0000 C CNN
F 2 "" H 3200 1350 60  0000 C CNN
F 3 "" H 3200 1350 60  0000 C CNN
	1    3200 1350
	-1   0    0    -1  
$EndComp
Wire Wire Line
	3200 1350 3200 1300
Wire Wire Line
	3200 850  3200 900 
Wire Wire Line
	3450 850  3450 900 
Connection ~ 3200 850 
$Comp
L GNDA #PWR0119
U 1 1 56990128
P 3450 1350
F 0 "#PWR0119" H 3450 1100 50  0001 C CNN
F 1 "GNDA" H 3450 1200 50  0000 C CNN
F 2 "" H 3450 1350 60  0000 C CNN
F 3 "" H 3450 1350 60  0000 C CNN
	1    3450 1350
	-1   0    0    -1  
$EndComp
Wire Wire Line
	3450 1350 3450 1300
Connection ~ 2900 850 
Text Notes 800  825  0    118  ~ 0
Input Filters
Text Notes 800  1600 0    60   ~ 0
Single ended inputs.\nOp-amps can be any good quality\nfast audio grade devices.\nTLE207x listed as examples.\nOther parts such as NE5532,\nOPA1652, OPA1642 would work for\nU401 and U402.\n\n
$Comp
L GNDA #PWR0120
U 1 1 56F68E1B
P 1850 2550
F 0 "#PWR0120" H 1850 2300 50  0001 C CNN
F 1 "GNDA" H 1850 2400 50  0000 C CNN
F 2 "" H 1850 2550 60  0000 C CNN
F 3 "" H 1850 2550 60  0000 C CNN
	1    1850 2550
	-1   0    0    -1  
$EndComp
Wire Wire Line
	1850 2550 1850 2500
Wire Wire Line
	1850 2000 1850 1850
Connection ~ 1850 1850
$Comp
L GNDA #PWR0121
U 1 1 56F6D4B4
P 1900 5900
F 0 "#PWR0121" H 1900 5650 50  0001 C CNN
F 1 "GNDA" H 1900 5750 50  0000 C CNN
F 2 "" H 1900 5900 60  0000 C CNN
F 3 "" H 1900 5900 60  0000 C CNN
	1    1900 5900
	-1   0    0    -1  
$EndComp
Wire Wire Line
	1900 5900 1900 5850
Wire Wire Line
	1900 5350 1900 5200
Connection ~ 1900 5200
$Comp
L CONN_2x1 P401
U 1 1 570BE5BB
P 1250 1850
F 0 "P401" V 1750 1800 40  0000 C CNN
F 1 "CONN_2x1" V 1700 1800 40  0000 C CNN
F 2 "MyKiCadLibs-Footprints:CONN_SIL_2_1MM" H 1250 1850 60  0001 C CNN
F 3 "" H 1250 1850 60  0000 C CNN
F 4 "1x2 2.54mm pitch pin header" V 1250 1850 60  0001 C CNN "Description"
	1    1250 1850
	-1   0    0    -1  
$EndComp
$Comp
L CONN_2x1 P402
U 1 1 570BE906
P 1300 5200
F 0 "P402" V 1800 5150 40  0000 C CNN
F 1 "CONN_2x1" V 1750 5150 40  0000 C CNN
F 2 "MyKiCadLibs-Footprints:CONN_SIL_2_1MM" H 1300 5200 60  0001 C CNN
F 3 "" H 1300 5200 60  0000 C CNN
F 4 "1x2 2.54mm pitch pin header" V 1300 5200 60  0001 C CNN "Description"
	1    1300 5200
	-1   0    0    -1  
$EndComp
$Comp
L R R401
U 1 1 57137CEE
P 1850 2250
F 0 "R401" V 1770 2250 40  0000 C CNN
F 1 "47k" V 1857 2251 40  0000 C CNN
F 2 "MyKiCadLibs-Footprints:SMD-1206" V 1780 2250 30  0001 C CNN
F 3 "" V 1770 2250 30  0000 C CNN
F 4 "250mW" V 1950 2250 40  0001 C CNN "Power"
F 5 "MELF0204 1% =>250mW or 1206 1% =>250mW" V 2095 2250 40  0001 C CNN "Description"
F 6 "1206" V 2025 2250 40  0001 C CNN "Size"
F 7 "1%" V 2175 2250 40  0001 C CNN "Tolerance"
	1    1850 2250
	1    0    0    1   
$EndComp
$Comp
L R R427
U 1 1 571388FA
P 1550 1850
F 0 "R427" V 1470 1850 40  0000 C CNN
F 1 "1k" V 1557 1851 40  0000 C CNN
F 2 "MyKiCadLibs-Footprints:SMD-1206" V 1480 1850 30  0001 C CNN
F 3 "" V 1470 1850 30  0000 C CNN
F 4 "250mW" V 1650 1850 40  0001 C CNN "Power"
F 5 "MELF0204 1% =>250mW or 1206 1% =>250mW" V 1795 1850 40  0001 C CNN "Description"
F 6 "1206" V 1725 1850 40  0001 C CNN "Size"
F 7 "1%" V 1875 1850 40  0001 C CNN "Tolerance"
	1    1550 1850
	0    1    1    0   
$EndComp
$Comp
L C C414
U 1 1 571396AF
P 2900 1100
F 0 "C414" H 2900 1200 40  0000 L CNN
F 1 "10u" H 2910 1015 40  0000 L CNN
F 2 "MyKiCadLibs-Footprints:SMD-0805" H 2938 950 30  0001 C CNN
F 3 "" H 2900 1200 60  0000 C CNN
F 4 "10V" H 2915 945 40  0000 L CNN "Voltage"
F 5 "X5R" H 2915 875 40  0000 L CNN "Type"
F 6 "Ceramic capacitor" H 2900 1400 40  0001 L CNN "Description"
F 7 "20%" H 2970 735 40  0001 C CNN "Tolerance"
F 8 "0805" H 2910 805 40  0001 L CNN "Size"
	1    2900 1100
	1    0    0    -1  
$EndComp
$Comp
L C C409
U 1 1 571396BA
P 2650 1100
F 0 "C409" H 2650 1200 40  0000 L CNN
F 1 "100n" H 2660 1015 40  0000 L CNN
F 2 "MyKiCadLibs-Footprints:SMD-0805" H 2688 950 30  0001 C CNN
F 3 "" H 2650 1200 60  0000 C CNN
F 4 "50V" H 2665 945 40  0000 L CNN "Voltage"
F 5 "X7R" H 2665 875 40  0000 L CNN "Type"
F 6 "Ceramic capacitor" H 2650 1400 40  0001 L CNN "Description"
F 7 "10%" H 2720 735 40  0001 C CNN "Tolerance"
F 8 "0805" H 2660 805 40  0001 L CNN "Size"
	1    2650 1100
	1    0    0    -1  
$EndComp
$Comp
L CP1 C403
U 1 1 57139791
P 3000 1850
F 0 "C403" H 3050 1950 50  0000 L CNN
F 1 "100u" H 3050 1750 50  0000 L CNN
F 2 "MyKiCadLibs-Footprints:CAP-TH-D10mmP5mm" H 3000 1850 60  0001 C CNN
F 3 "" H 3000 1850 60  0000 C CNN
F 4 "50V" H 3125 1670 50  0000 C CNN "Voltage"
F 5 "5mm Pitch, 10mm Diameter" H 3000 1850 60  0001 C CNN "Size"
F 6 "Aluminium electrolytic - Panasonic FC, Audio Grade, or Bipolar part" H 3000 1850 60  0001 C CNN "Description"
	1    3000 1850
	0    1    1    0   
$EndComp
$Comp
L C C451
U 1 1 5713A8F1
P 3450 1100
F 0 "C451" H 3450 1200 40  0000 L CNN
F 1 "10u" H 3460 1015 40  0000 L CNN
F 2 "MyKiCadLibs-Footprints:SMD-0805" H 3488 950 30  0001 C CNN
F 3 "" H 3450 1200 60  0000 C CNN
F 4 "10V" H 3465 945 40  0000 L CNN "Voltage"
F 5 "X5R" H 3465 875 40  0000 L CNN "Type"
F 6 "Ceramic capacitor" H 3450 1400 40  0001 L CNN "Description"
F 7 "20%" H 3520 735 40  0001 C CNN "Tolerance"
F 8 "0805" H 3460 805 40  0001 L CNN "Size"
	1    3450 1100
	1    0    0    -1  
$EndComp
$Comp
L C C449
U 1 1 5713A8FC
P 3200 1100
F 0 "C449" H 3200 1200 40  0000 L CNN
F 1 "100n" H 3210 1015 40  0000 L CNN
F 2 "MyKiCadLibs-Footprints:SMD-0805" H 3238 950 30  0001 C CNN
F 3 "" H 3200 1200 60  0000 C CNN
F 4 "50V" H 3215 945 40  0000 L CNN "Voltage"
F 5 "X7R" H 3215 875 40  0000 L CNN "Type"
F 6 "Ceramic capacitor" H 3200 1400 40  0001 L CNN "Description"
F 7 "10%" H 3270 735 40  0001 C CNN "Tolerance"
F 8 "0805" H 3210 805 40  0001 L CNN "Size"
	1    3200 1100
	1    0    0    -1  
$EndComp
$Comp
L C C404
U 1 1 5713B64B
P 3000 2150
F 0 "C404" H 3000 2250 40  0000 L CNN
F 1 "100n" H 3010 2065 40  0000 L CNN
F 2 "MyKiCadLibs-Footprints:CAP_TH_5mm" H 3038 2000 30  0001 C CNN
F 3 "" H 3000 2250 60  0000 C CNN
F 4 "63V" H 3015 1995 40  0000 L CNN "Voltage"
F 5 "Film" H 3015 1925 40  0000 L CNN "Type"
F 6 "Ceramic capacitor" H 3000 2450 40  0001 L CNN "Description"
F 7 "10%" H 3070 1785 40  0001 C CNN "Tolerance"
F 8 "5mm" H 3010 1855 40  0001 L CNN "Size"
	1    3000 2150
	0    -1   1    0   
$EndComp
$Comp
L C C411
U 1 1 5713C93F
P 1000 2700
F 0 "C411" H 1000 2800 40  0000 L CNN
F 1 "100n" H 1010 2615 40  0000 L CNN
F 2 "MyKiCadLibs-Footprints:SMD-0805" H 1038 2550 30  0001 C CNN
F 3 "" H 1000 2800 60  0000 C CNN
F 4 "50V" H 1015 2545 40  0000 L CNN "Voltage"
F 5 "X7R" H 1015 2475 40  0000 L CNN "Type"
F 6 "Ceramic capacitor" H 1000 3000 40  0001 L CNN "Description"
F 7 "10%" H 1070 2335 40  0001 C CNN "Tolerance"
F 8 "0805" H 1010 2405 40  0001 L CNN "Size"
	1    1000 2700
	1    0    0    -1  
$EndComp
$Comp
L C C417
U 1 1 5713CD65
P 1250 2700
F 0 "C417" H 1250 2800 40  0000 L CNN
F 1 "100n" H 1260 2615 40  0000 L CNN
F 2 "MyKiCadLibs-Footprints:SMD-0805" H 1288 2550 30  0001 C CNN
F 3 "" H 1250 2800 60  0000 C CNN
F 4 "50V" H 1265 2545 40  0000 L CNN "Voltage"
F 5 "X7R" H 1265 2475 40  0000 L CNN "Type"
F 6 "Ceramic capacitor" H 1250 3000 40  0001 L CNN "Description"
F 7 "10%" H 1320 2335 40  0001 C CNN "Tolerance"
F 8 "0805" H 1260 2405 40  0001 L CNN "Size"
	1    1250 2700
	1    0    0    -1  
$EndComp
$Comp
L C C447
U 1 1 5713D153
P 2150 2200
F 0 "C447" H 2150 2300 40  0000 L CNN
F 1 "1n" H 2160 2115 40  0000 L CNN
F 2 "MyKiCadLibs-Footprints:SMD-0805" H 2188 2050 30  0001 C CNN
F 3 "" H 2150 2300 60  0000 C CNN
F 4 "50V" H 2165 2045 40  0000 L CNN "Voltage"
F 5 "C0G" H 2165 1975 40  0000 L CNN "Type"
F 6 "Ceramic capacitor" H 2150 2500 40  0001 L CNN "Description"
F 7 "5%" H 2220 1835 40  0001 C CNN "Tolerance"
F 8 "0805" H 2160 1905 40  0001 L CNN "Size"
	1    2150 2200
	1    0    0    -1  
$EndComp
$Comp
L R R403
U 1 1 5713D677
P 3600 1850
F 0 "R403" V 3520 1850 40  0000 C CNN
F 1 "1k" V 3607 1851 40  0000 C CNN
F 2 "MyKiCadLibs-Footprints:SMD-1206" V 3530 1850 30  0001 C CNN
F 3 "" V 3520 1850 30  0000 C CNN
F 4 "250mW" V 3700 1850 40  0001 C CNN "Power"
F 5 "MELF0204 1% =>250mW or 1206 1% =>250mW" V 3845 1850 40  0001 C CNN "Description"
F 6 "1206" V 3775 1850 40  0001 C CNN "Size"
F 7 "1%" V 3925 1850 40  0001 C CNN "Tolerance"
	1    3600 1850
	0    1    -1   0   
$EndComp
$Comp
L R R407
U 1 1 5713E26B
P 3600 1650
F 0 "R407" V 3520 1650 40  0000 C CNN
F 1 "2k2" V 3607 1651 40  0000 C CNN
F 2 "MyKiCadLibs-Footprints:SMD-1206" V 3530 1650 30  0001 C CNN
F 3 "" V 3520 1650 30  0000 C CNN
F 4 "250mW" V 3700 1650 40  0001 C CNN "Power"
F 5 "MELF0204 1% =>250mW or 1206 1% =>250mW" V 3845 1650 40  0001 C CNN "Description"
F 6 "1206" V 3775 1650 40  0001 C CNN "Size"
F 7 "1%" V 3925 1650 40  0001 C CNN "Tolerance"
	1    3600 1650
	0    1    1    0   
$EndComp
$Comp
L R R408
U 1 1 5713E7AA
P 3700 2500
F 0 "R408" V 3620 2500 40  0000 C CNN
F 1 "2k2" V 3707 2501 40  0000 C CNN
F 2 "MyKiCadLibs-Footprints:SMD-1206" V 3630 2500 30  0001 C CNN
F 3 "" V 3620 2500 30  0000 C CNN
F 4 "250mW" V 3800 2500 40  0001 C CNN "Power"
F 5 "MELF0204 1% =>250mW or 1206 1% =>250mW" V 3945 2500 40  0001 C CNN "Description"
F 6 "1206" V 3875 2500 40  0001 C CNN "Size"
F 7 "1%" V 4025 2500 40  0001 C CNN "Tolerance"
	1    3700 2500
	0    1    1    0   
$EndComp
$Comp
L R R411
U 1 1 5713ECF8
P 4500 800
F 0 "R411" V 4420 800 40  0000 C CNN
F 1 "2k2" V 4507 801 40  0000 C CNN
F 2 "MyKiCadLibs-Footprints:SMD-1206" V 4430 800 30  0001 C CNN
F 3 "" V 4420 800 30  0000 C CNN
F 4 "250mW" V 4600 800 40  0001 C CNN "Power"
F 5 "MELF0204 1% =>250mW or 1206 1% =>250mW" V 4745 800 40  0001 C CNN "Description"
F 6 "1206" V 4675 800 40  0001 C CNN "Size"
F 7 "1%" V 4825 800 40  0001 C CNN "Tolerance"
	1    4500 800 
	0    1    1    0   
$EndComp
$Comp
L R R412
U 1 1 5713F265
P 4500 3100
F 0 "R412" V 4420 3100 40  0000 C CNN
F 1 "1k5" V 4507 3101 40  0000 C CNN
F 2 "MyKiCadLibs-Footprints:SMD-1206" V 4430 3100 30  0001 C CNN
F 3 "" V 4420 3100 30  0000 C CNN
F 4 "250mW" V 4600 3100 40  0001 C CNN "Power"
F 5 "MELF0204 1% =>250mW or 1206 1% =>250mW" V 4745 3100 40  0001 C CNN "Description"
F 6 "1206" V 4675 3100 40  0001 C CNN "Size"
F 7 "1%" V 4825 3100 40  0001 C CNN "Tolerance"
	1    4500 3100
	0    1    1    0   
$EndComp
$Comp
L R R404
U 1 1 5713F3F8
P 4500 3300
F 0 "R404" V 4420 3300 40  0000 C CNN
F 1 "1k5" V 4507 3301 40  0000 C CNN
F 2 "MyKiCadLibs-Footprints:SMD-1206" V 4430 3300 30  0001 C CNN
F 3 "" V 4420 3300 30  0000 C CNN
F 4 "250mW" V 4600 3300 40  0001 C CNN "Power"
F 5 "MELF0204 1% =>250mW or 1206 1% =>250mW" V 4745 3300 40  0001 C CNN "Description"
F 6 "1206" V 4675 3300 40  0001 C CNN "Size"
F 7 "1%" V 4825 3300 40  0001 C CNN "Tolerance"
	1    4500 3300
	0    1    1    0   
$EndComp
$Comp
L C C419
U 1 1 5713FF96
P 2550 2850
F 0 "C419" H 2550 2950 40  0000 L CNN
F 1 "10u" H 2560 2765 40  0000 L CNN
F 2 "MyKiCadLibs-Footprints:SMD-1206" H 2588 2700 30  0001 C CNN
F 3 "" H 2550 2950 60  0000 C CNN
F 4 "35V" H 2565 2695 40  0000 L CNN "Voltage"
F 5 "X5R" H 2565 2625 40  0000 L CNN "Type"
F 6 "Ceramic capacitor" H 2550 3150 40  0001 L CNN "Description"
F 7 "20%" H 2620 2485 40  0001 C CNN "Tolerance"
F 8 "1206" H 2560 2555 40  0000 L CNN "Size"
	1    2550 2850
	1    0    0    -1  
$EndComp
$Comp
L C C421
U 1 1 5713FFA1
P 2800 2850
F 0 "C421" H 2800 2950 40  0000 L CNN
F 1 "100n" H 2810 2765 40  0000 L CNN
F 2 "MyKiCadLibs-Footprints:SMD-0805" H 2838 2700 30  0001 C CNN
F 3 "" H 2800 2950 60  0000 C CNN
F 4 "50V" H 2815 2695 40  0000 L CNN "Voltage"
F 5 "X7R" H 2815 2625 40  0000 L CNN "Type"
F 6 "Ceramic capacitor" H 2800 3150 40  0001 L CNN "Description"
F 7 "10%" H 2870 2485 40  0001 C CNN "Tolerance"
F 8 "0805" H 2810 2555 40  0001 L CNN "Size"
	1    2800 2850
	1    0    0    -1  
$EndComp
$Comp
L C C423
U 1 1 5714020C
P 3050 2850
F 0 "C423" H 3050 2950 40  0000 L CNN
F 1 "10n" H 3060 2765 40  0000 L CNN
F 2 "MyKiCadLibs-Footprints:SMD-0805" H 3088 2700 30  0001 C CNN
F 3 "" H 3050 2950 60  0000 C CNN
F 4 "50V" H 3065 2695 40  0000 L CNN "Voltage"
F 5 "X7R" H 3065 2625 40  0000 L CNN "Type"
F 6 "Ceramic capacitor" H 3050 3150 40  0001 L CNN "Description"
F 7 "10%" H 3120 2485 40  0001 C CNN "Tolerance"
F 8 "0805" H 3060 2555 40  0001 L CNN "Size"
	1    3050 2850
	1    0    0    -1  
$EndComp
$Comp
L C C413
U 1 1 57141063
P 4450 1000
F 0 "C413" H 4450 1100 40  0000 L CNN
F 1 "330p" H 4460 915 40  0000 L CNN
F 2 "MyKiCadLibs-Footprints:SMD-0805" H 4488 850 30  0001 C CNN
F 3 "" H 4450 1100 60  0000 C CNN
F 4 "50V" H 4465 845 40  0000 L CNN "Voltage"
F 5 "C0G" H 4465 775 40  0000 L CNN "Type"
F 6 "Ceramic capacitor" H 4450 1300 40  0001 L CNN "Description"
F 7 "5%" H 4520 635 40  0001 C CNN "Tolerance"
F 8 "0805" H 4460 705 40  0001 L CNN "Size"
	1    4450 1000
	0    -1   1    0   
$EndComp
$Comp
L R R415
U 1 1 57142BE5
P 5700 1750
F 0 "R415" V 5620 1750 40  0000 C CNN
F 1 "40R2" V 5707 1751 40  0000 C CNN
F 2 "MyKiCadLibs-Footprints:SMD-1206" V 5630 1750 30  0001 C CNN
F 3 "" V 5620 1750 30  0000 C CNN
F 4 "250mW" V 5800 1750 40  0001 C CNN "Power"
F 5 "MELF0204 1% =>250mW or 1206 1% =>250mW" V 5945 1750 40  0001 C CNN "Description"
F 6 "1206" V 5875 1750 40  0001 C CNN "Size"
F 7 "1%" V 6025 1750 40  0001 C CNN "Tolerance"
	1    5700 1750
	0    1    1    0   
$EndComp
$Comp
L R R416
U 1 1 57142FCD
P 5700 2600
F 0 "R416" V 5620 2600 40  0000 C CNN
F 1 "40R2" V 5707 2601 40  0000 C CNN
F 2 "MyKiCadLibs-Footprints:SMD-1206" V 5630 2600 30  0001 C CNN
F 3 "" V 5620 2600 30  0000 C CNN
F 4 "250mW" V 5800 2600 40  0001 C CNN "Power"
F 5 "MELF0204 1% =>250mW or 1206 1% =>250mW" V 5945 2600 40  0001 C CNN "Description"
F 6 "1206" V 5875 2600 40  0001 C CNN "Size"
F 7 "1%" V 6025 2600 40  0001 C CNN "Tolerance"
	1    5700 2600
	0    1    1    0   
$EndComp
$Comp
L R R419
U 1 1 5714344C
P 6500 1750
F 0 "R419" V 6420 1750 40  0000 C CNN
F 1 "100" V 6507 1751 40  0000 C CNN
F 2 "MyKiCadLibs-Footprints:SMD-1206" V 6430 1750 30  0001 C CNN
F 3 "" V 6420 1750 30  0000 C CNN
F 4 "250mW" V 6600 1750 40  0001 C CNN "Power"
F 5 "MELF0204 1% =>250mW or 1206 1% =>250mW" V 6745 1750 40  0001 C CNN "Description"
F 6 "1206" V 6675 1750 40  0001 C CNN "Size"
F 7 "1%" V 6825 1750 40  0001 C CNN "Tolerance"
	1    6500 1750
	0    1    1    0   
$EndComp
$Comp
L R R420
U 1 1 571438A5
P 6500 2600
F 0 "R420" V 6420 2600 40  0000 C CNN
F 1 "100" V 6507 2601 40  0000 C CNN
F 2 "MyKiCadLibs-Footprints:SMD-1206" V 6430 2600 30  0001 C CNN
F 3 "" V 6420 2600 30  0000 C CNN
F 4 "250mW" V 6600 2600 40  0001 C CNN "Power"
F 5 "MELF0204 1% =>250mW or 1206 1% =>250mW" V 6745 2600 40  0001 C CNN "Description"
F 6 "1206" V 6675 2600 40  0001 C CNN "Size"
F 7 "1%" V 6825 2600 40  0001 C CNN "Tolerance"
	1    6500 2600
	0    1    1    0   
$EndComp
$Comp
L R R423
U 1 1 57143E4C
P 7300 2050
F 0 "R423" V 7220 2050 40  0000 C CNN
F 1 "1k" V 7307 2051 40  0000 C CNN
F 2 "MyKiCadLibs-Footprints:SMD-1206" V 7230 2050 30  0001 C CNN
F 3 "" V 7220 2050 30  0000 C CNN
F 4 "250mW" V 7400 2050 40  0001 C CNN "Power"
F 5 "MELF0204 1% =>250mW or 1206 1% =>250mW" V 7545 2050 40  0001 C CNN "Description"
F 6 "1206" V 7475 2050 40  0001 C CNN "Size"
F 7 "1%" V 7625 2050 40  0001 C CNN "Tolerance"
	1    7300 2050
	0    1    -1   0   
$EndComp
$Comp
L C C401
U 1 1 571449C4
P 6050 1400
F 0 "C401" H 6050 1500 40  0000 L CNN
F 1 "100p" H 6060 1315 40  0000 L CNN
F 2 "MyKiCadLibs-Footprints:SMD-0805" H 6088 1250 30  0001 C CNN
F 3 "" H 6050 1500 60  0000 C CNN
F 4 "50V" H 6065 1245 40  0000 L CNN "Voltage"
F 5 "C0G" H 6065 1175 40  0000 L CNN "Type"
F 6 "Ceramic capacitor" H 6050 1700 40  0001 L CNN "Description"
F 7 "5%" H 6120 1035 40  0001 C CNN "Tolerance"
F 8 "0805" H 6060 1105 40  0001 L CNN "Size"
	1    6050 1400
	1    0    0    -1  
$EndComp
$Comp
L C C402
U 1 1 57144E33
P 6050 2950
F 0 "C402" H 6050 3050 40  0000 L CNN
F 1 "100p" H 6060 2865 40  0000 L CNN
F 2 "MyKiCadLibs-Footprints:SMD-0805" H 6088 2800 30  0001 C CNN
F 3 "" H 6050 3050 60  0000 C CNN
F 4 "50V" H 6065 2795 40  0000 L CNN "Voltage"
F 5 "C0G" H 6065 2725 40  0000 L CNN "Type"
F 6 "Ceramic capacitor" H 6050 3250 40  0001 L CNN "Description"
F 7 "5%" H 6120 2585 40  0001 C CNN "Tolerance"
F 8 "0805" H 6060 2655 40  0001 L CNN "Size"
	1    6050 2950
	1    0    0    -1  
$EndComp
$Comp
L C C425
U 1 1 57145225
P 6150 2200
F 0 "C425" H 6150 2300 40  0000 L CNN
F 1 "2n7" H 6160 2115 40  0000 L CNN
F 2 "MyKiCadLibs-Footprints:SMD-0805" H 6188 2050 30  0001 C CNN
F 3 "" H 6150 2300 60  0000 C CNN
F 4 "50V" H 6165 2045 40  0000 L CNN "Voltage"
F 5 "C0G" H 6165 1975 40  0000 L CNN "Type"
F 6 "Ceramic capacitor" H 6150 2500 40  0001 L CNN "Description"
F 7 "5%" H 6220 1835 40  0001 C CNN "Tolerance"
F 8 "0805" H 6160 1905 40  0001 L CNN "Size"
	1    6150 2200
	1    0    0    -1  
$EndComp
$Comp
L C C427
U 1 1 5714648A
P 7650 2350
F 0 "C427" H 7650 2450 40  0000 L CNN
F 1 "100n" H 7660 2265 40  0000 L CNN
F 2 "MyKiCadLibs-Footprints:SMD-0805" H 7688 2200 30  0001 C CNN
F 3 "" H 7650 2450 60  0000 C CNN
F 4 "50V" H 7665 2195 40  0000 L CNN "Voltage"
F 5 "X7R" H 7665 2125 40  0000 L CNN "Type"
F 6 "Ceramic capacitor" H 7650 2650 40  0001 L CNN "Description"
F 7 "10%" H 7720 1985 40  0001 C CNN "Tolerance"
F 8 "0805" H 7660 2055 40  0001 L CNN "Size"
	1    7650 2350
	1    0    0    -1  
$EndComp
$Comp
L C C429
U 1 1 57146B42
P 7900 2350
F 0 "C429" H 7900 2450 40  0000 L CNN
F 1 "10n" H 7910 2265 40  0000 L CNN
F 2 "MyKiCadLibs-Footprints:SMD-0805" H 7938 2200 30  0001 C CNN
F 3 "" H 7900 2450 60  0000 C CNN
F 4 "50V" H 7915 2195 40  0000 L CNN "Voltage"
F 5 "X7R" H 7915 2125 40  0000 L CNN "Type"
F 6 "Ceramic capacitor" H 7900 2650 40  0001 L CNN "Description"
F 7 "10%" H 7970 1985 40  0001 C CNN "Tolerance"
F 8 "0805" H 7910 2055 40  0001 L CNN "Size"
	1    7900 2350
	1    0    0    -1  
$EndComp
$Comp
L C C441
U 1 1 571473F8
P 10550 2450
F 0 "C441" H 10550 2550 40  0000 L CNN
F 1 "100n" H 10560 2365 40  0000 L CNN
F 2 "MyKiCadLibs-Footprints:SMD-0805" H 10588 2300 30  0001 C CNN
F 3 "" H 10550 2550 60  0000 C CNN
F 4 "50V" H 10565 2295 40  0000 L CNN "Voltage"
F 5 "X7R" H 10565 2225 40  0000 L CNN "Type"
F 6 "Ceramic capacitor" H 10550 2750 40  0001 L CNN "Description"
F 7 "10%" H 10620 2085 40  0001 C CNN "Tolerance"
F 8 "0805" H 10560 2155 40  0001 L CNN "Size"
	1    10550 2450
	1    0    0    -1  
$EndComp
$Comp
L C C443
U 1 1 57147403
P 10800 2450
F 0 "C443" H 10800 2550 40  0000 L CNN
F 1 "10n" H 10810 2365 40  0000 L CNN
F 2 "MyKiCadLibs-Footprints:SMD-0805" H 10838 2300 30  0001 C CNN
F 3 "" H 10800 2550 60  0000 C CNN
F 4 "50V" H 10815 2295 40  0000 L CNN "Voltage"
F 5 "X7R" H 10815 2225 40  0000 L CNN "Type"
F 6 "Ceramic capacitor" H 10800 2750 40  0001 L CNN "Description"
F 7 "10%" H 10870 2085 40  0001 C CNN "Tolerance"
F 8 "0805" H 10810 2155 40  0001 L CNN "Size"
	1    10800 2450
	1    0    0    -1  
$EndComp
$Comp
L R R425
U 1 1 571474C5
P 9900 2150
F 0 "R425" V 9820 2150 40  0000 C CNN
F 1 "1k" V 9907 2151 40  0000 C CNN
F 2 "MyKiCadLibs-Footprints:SMD-1206" V 9830 2150 30  0001 C CNN
F 3 "" V 9820 2150 30  0000 C CNN
F 4 "250mW" V 10000 2150 40  0001 C CNN "Power"
F 5 "MELF0204 1% =>250mW or 1206 1% =>250mW" V 10145 2150 40  0001 C CNN "Description"
F 6 "1206" V 10075 2150 40  0001 C CNN "Size"
F 7 "1%" V 10225 2150 40  0001 C CNN "Tolerance"
	1    9900 2150
	0    1    -1   0   
$EndComp
$Comp
L CP1 C445
U 1 1 57148E4C
P 10250 2450
F 0 "C445" H 10300 2550 50  0000 L CNN
F 1 "47u" H 10300 2350 50  0000 L CNN
F 2 "MyKiCadLibs-Footprints:CAP-TH-D6.3mmP2.5mm" H 10250 2450 60  0001 C CNN
F 3 "" H 10250 2450 60  0000 C CNN
F 4 "10V" H 10375 2270 50  0000 C CNN "Voltage"
F 5 "2.5mm Pitch, 6.3mm Diameter" H 10250 2450 60  0001 C CNN "Size"
F 6 "Aluminium electrolytic low impedance capacitor - eg Panasonic FC or FR parts" H 10250 2450 60  0001 C CNN "Description"
	1    10250 2450
	1    0    0    -1  
$EndComp
$Comp
L C C435
U 1 1 5714A4D1
P 9150 3200
F 0 "C435" H 9150 3300 40  0000 L CNN
F 1 "10u" H 9160 3115 40  0000 L CNN
F 2 "MyKiCadLibs-Footprints:SMD-1206" H 9188 3050 30  0001 C CNN
F 3 "" H 9150 3300 60  0000 C CNN
F 4 "35V" H 9165 3045 40  0000 L CNN "Voltage"
F 5 "X5R" H 9165 2975 40  0000 L CNN "Type"
F 6 "Ceramic capacitor" H 9150 3500 40  0001 L CNN "Description"
F 7 "20%" H 9220 2835 40  0001 C CNN "Tolerance"
F 8 "1206" H 9160 2905 40  0000 L CNN "Size"
	1    9150 3200
	1    0    0    -1  
$EndComp
$Comp
L C C437
U 1 1 5714A4DC
P 9400 3200
F 0 "C437" H 9400 3300 40  0000 L CNN
F 1 "100n" H 9410 3115 40  0000 L CNN
F 2 "MyKiCadLibs-Footprints:SMD-0805" H 9438 3050 30  0001 C CNN
F 3 "" H 9400 3300 60  0000 C CNN
F 4 "50V" H 9415 3045 40  0000 L CNN "Voltage"
F 5 "X7R" H 9415 2975 40  0000 L CNN "Type"
F 6 "Ceramic capacitor" H 9400 3500 40  0001 L CNN "Description"
F 7 "10%" H 9470 2835 40  0001 C CNN "Tolerance"
F 8 "0805" H 9410 2905 40  0001 L CNN "Size"
	1    9400 3200
	1    0    0    -1  
$EndComp
$Comp
L C C439
U 1 1 5714A4E7
P 9650 3200
F 0 "C439" H 9650 3300 40  0000 L CNN
F 1 "10n" H 9660 3115 40  0000 L CNN
F 2 "MyKiCadLibs-Footprints:SMD-0805" H 9688 3050 30  0001 C CNN
F 3 "" H 9650 3300 60  0000 C CNN
F 4 "50V" H 9665 3045 40  0000 L CNN "Voltage"
F 5 "X7R" H 9665 2975 40  0000 L CNN "Type"
F 6 "Ceramic capacitor" H 9650 3500 40  0001 L CNN "Description"
F 7 "10%" H 9720 2835 40  0001 C CNN "Tolerance"
F 8 "0805" H 9660 2905 40  0001 L CNN "Size"
	1    9650 3200
	1    0    0    -1  
$EndComp
$Comp
L C C431
U 1 1 5714A627
P 8300 3250
F 0 "C431" H 8300 3350 40  0000 L CNN
F 1 "100n" H 8310 3165 40  0000 L CNN
F 2 "MyKiCadLibs-Footprints:SMD-0805" H 8338 3100 30  0001 C CNN
F 3 "" H 8300 3350 60  0000 C CNN
F 4 "50V" H 8315 3095 40  0000 L CNN "Voltage"
F 5 "X7R" H 8315 3025 40  0000 L CNN "Type"
F 6 "Ceramic capacitor" H 8300 3550 40  0001 L CNN "Description"
F 7 "10%" H 8370 2885 40  0001 C CNN "Tolerance"
F 8 "0805" H 8310 2955 40  0001 L CNN "Size"
	1    8300 3250
	1    0    0    -1  
$EndComp
$Comp
L C C433
U 1 1 5714A632
P 8600 3250
F 0 "C433" H 8600 3350 40  0000 L CNN
F 1 "100n" H 8610 3165 40  0000 L CNN
F 2 "MyKiCadLibs-Footprints:SMD-0805" H 8638 3100 30  0001 C CNN
F 3 "" H 8600 3350 60  0000 C CNN
F 4 "50V" H 8615 3095 40  0000 L CNN "Voltage"
F 5 "X7R" H 8615 3025 40  0000 L CNN "Type"
F 6 "Ceramic capacitor" H 8600 3550 40  0001 L CNN "Description"
F 7 "10%" H 8670 2885 40  0001 C CNN "Tolerance"
F 8 "0805" H 8610 2955 40  0001 L CNN "Size"
	1    8600 3250
	1    0    0    -1  
$EndComp
$Comp
L C C416
U 1 1 5714CD2C
P 2950 4350
F 0 "C416" H 2950 4450 40  0000 L CNN
F 1 "10u" H 2960 4265 40  0000 L CNN
F 2 "MyKiCadLibs-Footprints:SMD-0805" H 2988 4200 30  0001 C CNN
F 3 "" H 2950 4450 60  0000 C CNN
F 4 "10V" H 2965 4195 40  0000 L CNN "Voltage"
F 5 "X5R" H 2965 4125 40  0000 L CNN "Type"
F 6 "Ceramic capacitor" H 2950 4650 40  0001 L CNN "Description"
F 7 "20%" H 3020 3985 40  0001 C CNN "Tolerance"
F 8 "0805" H 2960 4055 40  0001 L CNN "Size"
	1    2950 4350
	1    0    0    -1  
$EndComp
$Comp
L C C410
U 1 1 5714CD37
P 2700 4350
F 0 "C410" H 2700 4450 40  0000 L CNN
F 1 "100n" H 2710 4265 40  0000 L CNN
F 2 "MyKiCadLibs-Footprints:SMD-0805" H 2738 4200 30  0001 C CNN
F 3 "" H 2700 4450 60  0000 C CNN
F 4 "50V" H 2715 4195 40  0000 L CNN "Voltage"
F 5 "X7R" H 2715 4125 40  0000 L CNN "Type"
F 6 "Ceramic capacitor" H 2700 4650 40  0001 L CNN "Description"
F 7 "10%" H 2770 3985 40  0001 C CNN "Tolerance"
F 8 "0805" H 2710 4055 40  0001 L CNN "Size"
	1    2700 4350
	1    0    0    -1  
$EndComp
$Comp
L C C452
U 1 1 5714CD42
P 3500 4350
F 0 "C452" H 3500 4450 40  0000 L CNN
F 1 "10u" H 3510 4265 40  0000 L CNN
F 2 "MyKiCadLibs-Footprints:SMD-0805" H 3538 4200 30  0001 C CNN
F 3 "" H 3500 4450 60  0000 C CNN
F 4 "10V" H 3515 4195 40  0000 L CNN "Voltage"
F 5 "X5R" H 3515 4125 40  0000 L CNN "Type"
F 6 "Ceramic capacitor" H 3500 4650 40  0001 L CNN "Description"
F 7 "20%" H 3570 3985 40  0001 C CNN "Tolerance"
F 8 "0805" H 3510 4055 40  0001 L CNN "Size"
	1    3500 4350
	1    0    0    -1  
$EndComp
$Comp
L C C450
U 1 1 5714CD4D
P 3250 4350
F 0 "C450" H 3250 4450 40  0000 L CNN
F 1 "100n" H 3260 4265 40  0000 L CNN
F 2 "MyKiCadLibs-Footprints:SMD-0805" H 3288 4200 30  0001 C CNN
F 3 "" H 3250 4450 60  0000 C CNN
F 4 "50V" H 3265 4195 40  0000 L CNN "Voltage"
F 5 "X7R" H 3265 4125 40  0000 L CNN "Type"
F 6 "Ceramic capacitor" H 3250 4650 40  0001 L CNN "Description"
F 7 "10%" H 3320 3985 40  0001 C CNN "Tolerance"
F 8 "0805" H 3260 4055 40  0001 L CNN "Size"
	1    3250 4350
	1    0    0    -1  
$EndComp
$Comp
L R R413
U 1 1 5714DC9F
P 4500 4250
F 0 "R413" V 4420 4250 40  0000 C CNN
F 1 "2k2" V 4507 4251 40  0000 C CNN
F 2 "MyKiCadLibs-Footprints:SMD-1206" V 4430 4250 30  0001 C CNN
F 3 "" V 4420 4250 30  0000 C CNN
F 4 "250mW" V 4600 4250 40  0001 C CNN "Power"
F 5 "MELF0204 1% =>250mW or 1206 1% =>250mW" V 4745 4250 40  0001 C CNN "Description"
F 6 "1206" V 4675 4250 40  0001 C CNN "Size"
F 7 "1%" V 4825 4250 40  0001 C CNN "Tolerance"
	1    4500 4250
	0    1    1    0   
$EndComp
$Comp
L C C415
U 1 1 5714DCAA
P 4450 4450
F 0 "C415" H 4450 4550 40  0000 L CNN
F 1 "330p" H 4460 4365 40  0000 L CNN
F 2 "MyKiCadLibs-Footprints:SMD-0805" H 4488 4300 30  0001 C CNN
F 3 "" H 4450 4550 60  0000 C CNN
F 4 "50V" H 4465 4295 40  0000 L CNN "Voltage"
F 5 "C0G" H 4465 4225 40  0000 L CNN "Type"
F 6 "Ceramic capacitor" H 4450 4750 40  0001 L CNN "Description"
F 7 "5%" H 4520 4085 40  0001 C CNN "Tolerance"
F 8 "0805" H 4460 4155 40  0001 L CNN "Size"
	1    4450 4450
	0    -1   1    0   
$EndComp
$Comp
L R R405
U 1 1 5714F231
P 3600 5200
F 0 "R405" V 3520 5200 40  0000 C CNN
F 1 "1k" V 3607 5201 40  0000 C CNN
F 2 "MyKiCadLibs-Footprints:SMD-1206" V 3530 5200 30  0001 C CNN
F 3 "" V 3520 5200 30  0000 C CNN
F 4 "250mW" V 3700 5200 40  0001 C CNN "Power"
F 5 "MELF0204 1% =>250mW or 1206 1% =>250mW" V 3845 5200 40  0001 C CNN "Description"
F 6 "1206" V 3775 5200 40  0001 C CNN "Size"
F 7 "1%" V 3925 5200 40  0001 C CNN "Tolerance"
	1    3600 5200
	0    1    -1   0   
$EndComp
$Comp
L R R409
U 1 1 5714F23B
P 3600 5000
F 0 "R409" V 3520 5000 40  0000 C CNN
F 1 "2k2" V 3607 5001 40  0000 C CNN
F 2 "MyKiCadLibs-Footprints:SMD-1206" V 3530 5000 30  0001 C CNN
F 3 "" V 3520 5000 30  0000 C CNN
F 4 "250mW" V 3700 5000 40  0001 C CNN "Power"
F 5 "MELF0204 1% =>250mW or 1206 1% =>250mW" V 3845 5000 40  0001 C CNN "Description"
F 6 "1206" V 3775 5000 40  0001 C CNN "Size"
F 7 "1%" V 3925 5000 40  0001 C CNN "Tolerance"
	1    3600 5000
	0    1    1    0   
$EndComp
$Comp
L R R410
U 1 1 5714F245
P 3800 5850
F 0 "R410" V 3720 5850 40  0000 C CNN
F 1 "2k2" V 3807 5851 40  0000 C CNN
F 2 "MyKiCadLibs-Footprints:SMD-1206" V 3730 5850 30  0001 C CNN
F 3 "" V 3720 5850 30  0000 C CNN
F 4 "250mW" V 3900 5850 40  0001 C CNN "Power"
F 5 "MELF0204 1% =>250mW or 1206 1% =>250mW" V 4045 5850 40  0001 C CNN "Description"
F 6 "1206" V 3975 5850 40  0001 C CNN "Size"
F 7 "1%" V 4125 5850 40  0001 C CNN "Tolerance"
	1    3800 5850
	0    1    1    0   
$EndComp
$Comp
L CP1 C407
U 1 1 57151032
P 3000 5200
F 0 "C407" H 3050 5300 50  0000 L CNN
F 1 "100u" H 3050 5100 50  0000 L CNN
F 2 "MyKiCadLibs-Footprints:CAP-TH-D10mmP5mm" H 3000 5200 60  0001 C CNN
F 3 "" H 3000 5200 60  0000 C CNN
F 4 "50V" H 3125 5020 50  0000 C CNN "Voltage"
F 5 "5mm Pitch, 10mm Diameter" H 3000 5200 60  0001 C CNN "Size"
F 6 "Aluminium electrolytic - Panasonic FC, Audio Grade, or Bipolar part" H 3000 5200 60  0001 C CNN "Description"
	1    3000 5200
	0    1    1    0   
$EndComp
$Comp
L C C408
U 1 1 5715103D
P 3000 5500
F 0 "C408" H 3000 5600 40  0000 L CNN
F 1 "100n" H 3010 5415 40  0000 L CNN
F 2 "MyKiCadLibs-Footprints:CAP_TH_5mm" H 3038 5350 30  0001 C CNN
F 3 "" H 3000 5600 60  0000 C CNN
F 4 "63V" H 3015 5345 40  0000 L CNN "Voltage"
F 5 "Film" H 3015 5275 40  0000 L CNN "Type"
F 6 "Ceramic capacitor" H 3000 5800 40  0001 L CNN "Description"
F 7 "10%" H 3070 5135 40  0001 C CNN "Tolerance"
F 8 "5mm" H 3010 5205 40  0001 L CNN "Size"
	1    3000 5500
	0    -1   1    0   
$EndComp
$Comp
L R R402
U 1 1 57151861
P 1900 5600
F 0 "R402" V 1820 5600 40  0000 C CNN
F 1 "47k" V 1907 5601 40  0000 C CNN
F 2 "MyKiCadLibs-Footprints:SMD-1206" V 1830 5600 30  0001 C CNN
F 3 "" V 1820 5600 30  0000 C CNN
F 4 "250mW" V 2000 5600 40  0001 C CNN "Power"
F 5 "MELF0204 1% =>250mW or 1206 1% =>250mW" V 2145 5600 40  0001 C CNN "Description"
F 6 "1206" V 2075 5600 40  0001 C CNN "Size"
F 7 "1%" V 2225 5600 40  0001 C CNN "Tolerance"
	1    1900 5600
	1    0    0    1   
$EndComp
$Comp
L C C448
U 1 1 5715186C
P 2150 5500
F 0 "C448" H 2150 5600 40  0000 L CNN
F 1 "1n" H 2160 5415 40  0000 L CNN
F 2 "MyKiCadLibs-Footprints:SMD-0805" H 2188 5350 30  0001 C CNN
F 3 "" H 2150 5600 60  0000 C CNN
F 4 "50V" H 2165 5345 40  0000 L CNN "Voltage"
F 5 "C0G" H 2165 5275 40  0000 L CNN "Type"
F 6 "Ceramic capacitor" H 2150 5800 40  0001 L CNN "Description"
F 7 "5%" H 2220 5135 40  0001 C CNN "Tolerance"
F 8 "0805" H 2160 5205 40  0001 L CNN "Size"
	1    2150 5500
	1    0    0    -1  
$EndComp
$Comp
L R R429
U 1 1 57151D00
P 1600 5200
F 0 "R429" V 1520 5200 40  0000 C CNN
F 1 "1k" V 1607 5201 40  0000 C CNN
F 2 "MyKiCadLibs-Footprints:SMD-1206" V 1530 5200 30  0001 C CNN
F 3 "" V 1520 5200 30  0000 C CNN
F 4 "250mW" V 1700 5200 40  0001 C CNN "Power"
F 5 "MELF0204 1% =>250mW or 1206 1% =>250mW" V 1845 5200 40  0001 C CNN "Description"
F 6 "1206" V 1775 5200 40  0001 C CNN "Size"
F 7 "1%" V 1925 5200 40  0001 C CNN "Tolerance"
	1    1600 5200
	0    1    1    0   
$EndComp
$Comp
L C C412
U 1 1 571523BA
P 1050 6200
F 0 "C412" H 1050 6300 40  0000 L CNN
F 1 "100n" H 1060 6115 40  0000 L CNN
F 2 "MyKiCadLibs-Footprints:SMD-0805" H 1088 6050 30  0001 C CNN
F 3 "" H 1050 6300 60  0000 C CNN
F 4 "50V" H 1065 6045 40  0000 L CNN "Voltage"
F 5 "X7R" H 1065 5975 40  0000 L CNN "Type"
F 6 "Ceramic capacitor" H 1050 6500 40  0001 L CNN "Description"
F 7 "10%" H 1120 5835 40  0001 C CNN "Tolerance"
F 8 "0805" H 1060 5905 40  0001 L CNN "Size"
	1    1050 6200
	1    0    0    -1  
$EndComp
$Comp
L C C418
U 1 1 571523C5
P 1350 6200
F 0 "C418" H 1350 6300 40  0000 L CNN
F 1 "100n" H 1360 6115 40  0000 L CNN
F 2 "MyKiCadLibs-Footprints:SMD-0805" H 1388 6050 30  0001 C CNN
F 3 "" H 1350 6300 60  0000 C CNN
F 4 "50V" H 1365 6045 40  0000 L CNN "Voltage"
F 5 "X7R" H 1365 5975 40  0000 L CNN "Type"
F 6 "Ceramic capacitor" H 1350 6500 40  0001 L CNN "Description"
F 7 "10%" H 1420 5835 40  0001 C CNN "Tolerance"
F 8 "0805" H 1360 5905 40  0001 L CNN "Size"
	1    1350 6200
	1    0    0    -1  
$EndComp
$Comp
L C C420
U 1 1 57152776
P 2400 6300
F 0 "C420" H 2400 6400 40  0000 L CNN
F 1 "10u" H 2410 6215 40  0000 L CNN
F 2 "MyKiCadLibs-Footprints:SMD-1206" H 2438 6150 30  0001 C CNN
F 3 "" H 2400 6400 60  0000 C CNN
F 4 "35V" H 2415 6145 40  0000 L CNN "Voltage"
F 5 "X5R" H 2415 6075 40  0000 L CNN "Type"
F 6 "Ceramic capacitor" H 2400 6600 40  0001 L CNN "Description"
F 7 "20%" H 2470 5935 40  0001 C CNN "Tolerance"
F 8 "1206" H 2410 6005 40  0000 L CNN "Size"
	1    2400 6300
	1    0    0    -1  
$EndComp
$Comp
L C C422
U 1 1 57152781
P 2650 6300
F 0 "C422" H 2650 6400 40  0000 L CNN
F 1 "100n" H 2660 6215 40  0000 L CNN
F 2 "MyKiCadLibs-Footprints:SMD-0805" H 2688 6150 30  0001 C CNN
F 3 "" H 2650 6400 60  0000 C CNN
F 4 "50V" H 2665 6145 40  0000 L CNN "Voltage"
F 5 "X7R" H 2665 6075 40  0000 L CNN "Type"
F 6 "Ceramic capacitor" H 2650 6600 40  0001 L CNN "Description"
F 7 "10%" H 2720 5935 40  0001 C CNN "Tolerance"
F 8 "0805" H 2660 6005 40  0001 L CNN "Size"
	1    2650 6300
	1    0    0    -1  
$EndComp
$Comp
L C C424
U 1 1 5715278C
P 2900 6300
F 0 "C424" H 2900 6400 40  0000 L CNN
F 1 "10n" H 2910 6215 40  0000 L CNN
F 2 "MyKiCadLibs-Footprints:SMD-0805" H 2938 6150 30  0001 C CNN
F 3 "" H 2900 6400 60  0000 C CNN
F 4 "50V" H 2915 6145 40  0000 L CNN "Voltage"
F 5 "X7R" H 2915 6075 40  0000 L CNN "Type"
F 6 "Ceramic capacitor" H 2900 6600 40  0001 L CNN "Description"
F 7 "10%" H 2970 5935 40  0001 C CNN "Tolerance"
F 8 "0805" H 2910 6005 40  0001 L CNN "Size"
	1    2900 6300
	1    0    0    -1  
$EndComp
$Comp
L R R414
U 1 1 571556B8
P 4500 6450
F 0 "R414" V 4420 6450 40  0000 C CNN
F 1 "1k5" V 4507 6451 40  0000 C CNN
F 2 "MyKiCadLibs-Footprints:SMD-1206" V 4430 6450 30  0001 C CNN
F 3 "" V 4420 6450 30  0000 C CNN
F 4 "250mW" V 4600 6450 40  0001 C CNN "Power"
F 5 "MELF0204 1% =>250mW or 1206 1% =>250mW" V 4745 6450 40  0001 C CNN "Description"
F 6 "1206" V 4675 6450 40  0001 C CNN "Size"
F 7 "1%" V 4825 6450 40  0001 C CNN "Tolerance"
	1    4500 6450
	0    1    1    0   
$EndComp
$Comp
L R R406
U 1 1 571556C2
P 4500 6650
F 0 "R406" V 4420 6650 40  0000 C CNN
F 1 "1k5" V 4507 6651 40  0000 C CNN
F 2 "MyKiCadLibs-Footprints:SMD-1206" V 4430 6650 30  0001 C CNN
F 3 "" V 4420 6650 30  0000 C CNN
F 4 "250mW" V 4600 6650 40  0001 C CNN "Power"
F 5 "MELF0204 1% =>250mW or 1206 1% =>250mW" V 4745 6650 40  0001 C CNN "Description"
F 6 "1206" V 4675 6650 40  0001 C CNN "Size"
F 7 "1%" V 4825 6650 40  0001 C CNN "Tolerance"
	1    4500 6650
	0    1    1    0   
$EndComp
$Comp
L R R417
U 1 1 57155780
P 5700 5100
F 0 "R417" V 5620 5100 40  0000 C CNN
F 1 "40R2" V 5707 5101 40  0000 C CNN
F 2 "MyKiCadLibs-Footprints:SMD-1206" V 5630 5100 30  0001 C CNN
F 3 "" V 5620 5100 30  0000 C CNN
F 4 "250mW" V 5800 5100 40  0001 C CNN "Power"
F 5 "MELF0204 1% =>250mW or 1206 1% =>250mW" V 5945 5100 40  0001 C CNN "Description"
F 6 "1206" V 5875 5100 40  0001 C CNN "Size"
F 7 "1%" V 6025 5100 40  0001 C CNN "Tolerance"
	1    5700 5100
	0    1    1    0   
$EndComp
$Comp
L R R418
U 1 1 57155842
P 5700 5950
F 0 "R418" V 5620 5950 40  0000 C CNN
F 1 "40R2" V 5707 5951 40  0000 C CNN
F 2 "MyKiCadLibs-Footprints:SMD-1206" V 5630 5950 30  0001 C CNN
F 3 "" V 5620 5950 30  0000 C CNN
F 4 "250mW" V 5800 5950 40  0001 C CNN "Power"
F 5 "MELF0204 1% =>250mW or 1206 1% =>250mW" V 5945 5950 40  0001 C CNN "Description"
F 6 "1206" V 5875 5950 40  0001 C CNN "Size"
F 7 "1%" V 6025 5950 40  0001 C CNN "Tolerance"
	1    5700 5950
	0    1    1    0   
$EndComp
$Comp
L R R421
U 1 1 57157E33
P 6500 5100
F 0 "R421" V 6420 5100 40  0000 C CNN
F 1 "100R" V 6507 5101 40  0000 C CNN
F 2 "MyKiCadLibs-Footprints:SMD-1206" V 6430 5100 30  0001 C CNN
F 3 "" V 6420 5100 30  0000 C CNN
F 4 "250mW" V 6600 5100 40  0001 C CNN "Power"
F 5 "MELF0204 1% =>250mW or 1206 1% =>250mW" V 6745 5100 40  0001 C CNN "Description"
F 6 "1206" V 6675 5100 40  0001 C CNN "Size"
F 7 "1%" V 6825 5100 40  0001 C CNN "Tolerance"
	1    6500 5100
	0    1    1    0   
$EndComp
$Comp
L R R422
U 1 1 57158219
P 6500 5950
F 0 "R422" V 6420 5950 40  0000 C CNN
F 1 "100R" V 6507 5951 40  0000 C CNN
F 2 "MyKiCadLibs-Footprints:SMD-1206" V 6430 5950 30  0001 C CNN
F 3 "" V 6420 5950 30  0000 C CNN
F 4 "250mW" V 6600 5950 40  0001 C CNN "Power"
F 5 "MELF0204 1% =>250mW or 1206 1% =>250mW" V 6745 5950 40  0001 C CNN "Description"
F 6 "1206" V 6675 5950 40  0001 C CNN "Size"
F 7 "1%" V 6825 5950 40  0001 C CNN "Tolerance"
	1    6500 5950
	0    1    1    0   
$EndComp
$Comp
L C C426
U 1 1 57158B65
P 6150 5450
F 0 "C426" H 6150 5550 40  0000 L CNN
F 1 "2n7" H 6160 5365 40  0000 L CNN
F 2 "MyKiCadLibs-Footprints:SMD-0805" H 6188 5300 30  0001 C CNN
F 3 "" H 6150 5550 60  0000 C CNN
F 4 "50V" H 6165 5295 40  0000 L CNN "Voltage"
F 5 "C0G" H 6165 5225 40  0000 L CNN "Type"
F 6 "Ceramic capacitor" H 6150 5750 40  0001 L CNN "Description"
F 7 "5%" H 6220 5085 40  0001 C CNN "Tolerance"
F 8 "0805" H 6160 5155 40  0001 L CNN "Size"
	1    6150 5450
	1    0    0    -1  
$EndComp
$Comp
L C C405
U 1 1 5715998C
P 6050 4750
F 0 "C405" H 6050 4850 40  0000 L CNN
F 1 "100p" H 6060 4665 40  0000 L CNN
F 2 "MyKiCadLibs-Footprints:SMD-0805" H 6088 4600 30  0001 C CNN
F 3 "" H 6050 4850 60  0000 C CNN
F 4 "50V" H 6065 4595 40  0000 L CNN "Voltage"
F 5 "C0G" H 6065 4525 40  0000 L CNN "Type"
F 6 "Ceramic capacitor" H 6050 5050 40  0001 L CNN "Description"
F 7 "5%" H 6120 4385 40  0001 C CNN "Tolerance"
F 8 "0805" H 6060 4455 40  0001 L CNN "Size"
	1    6050 4750
	1    0    0    -1  
$EndComp
$Comp
L C C406
U 1 1 5715A097
P 6050 6300
F 0 "C406" H 6050 6400 40  0000 L CNN
F 1 "100p" H 6060 6215 40  0000 L CNN
F 2 "MyKiCadLibs-Footprints:SMD-0805" H 6088 6150 30  0001 C CNN
F 3 "" H 6050 6400 60  0000 C CNN
F 4 "50V" H 6065 6145 40  0000 L CNN "Voltage"
F 5 "C0G" H 6065 6075 40  0000 L CNN "Type"
F 6 "Ceramic capacitor" H 6050 6600 40  0001 L CNN "Description"
F 7 "5%" H 6120 5935 40  0001 C CNN "Tolerance"
F 8 "0805" H 6060 6005 40  0001 L CNN "Size"
	1    6050 6300
	1    0    0    -1  
$EndComp
$Comp
L R R424
U 1 1 5715B9FC
P 7300 4550
F 0 "R424" V 7220 4550 40  0000 C CNN
F 1 "1k" V 7307 4551 40  0000 C CNN
F 2 "MyKiCadLibs-Footprints:SMD-1206" V 7230 4550 30  0001 C CNN
F 3 "" V 7220 4550 30  0000 C CNN
F 4 "250mW" V 7400 4550 40  0001 C CNN "Power"
F 5 "MELF0204 1% =>250mW or 1206 1% =>250mW" V 7545 4550 40  0001 C CNN "Description"
F 6 "1206" V 7475 4550 40  0001 C CNN "Size"
F 7 "1%" V 7625 4550 40  0001 C CNN "Tolerance"
	1    7300 4550
	0    1    -1   0   
$EndComp
$Comp
L C C428
U 1 1 5715BB89
P 7650 4850
F 0 "C428" H 7650 4950 40  0000 L CNN
F 1 "100n" H 7660 4765 40  0000 L CNN
F 2 "MyKiCadLibs-Footprints:SMD-0805" H 7688 4700 30  0001 C CNN
F 3 "" H 7650 4950 60  0000 C CNN
F 4 "50V" H 7665 4695 40  0000 L CNN "Voltage"
F 5 "X7R" H 7665 4625 40  0000 L CNN "Type"
F 6 "Ceramic capacitor" H 7650 5150 40  0001 L CNN "Description"
F 7 "10%" H 7720 4485 40  0001 C CNN "Tolerance"
F 8 "0805" H 7660 4555 40  0001 L CNN "Size"
	1    7650 4850
	1    0    0    -1  
$EndComp
$Comp
L C C430
U 1 1 5715BB94
P 7900 4850
F 0 "C430" H 7900 4950 40  0000 L CNN
F 1 "10n" H 7910 4765 40  0000 L CNN
F 2 "MyKiCadLibs-Footprints:SMD-0805" H 7938 4700 30  0001 C CNN
F 3 "" H 7900 4950 60  0000 C CNN
F 4 "50V" H 7915 4695 40  0000 L CNN "Voltage"
F 5 "X7R" H 7915 4625 40  0000 L CNN "Type"
F 6 "Ceramic capacitor" H 7900 5150 40  0001 L CNN "Description"
F 7 "10%" H 7970 4485 40  0001 C CNN "Tolerance"
F 8 "0805" H 7910 4555 40  0001 L CNN "Size"
	1    7900 4850
	1    0    0    -1  
$EndComp
$Comp
L C C432
U 1 1 5715BC92
P 8300 5750
F 0 "C432" H 8300 5850 40  0000 L CNN
F 1 "100n" H 8310 5665 40  0000 L CNN
F 2 "MyKiCadLibs-Footprints:SMD-0805" H 8338 5600 30  0001 C CNN
F 3 "" H 8300 5850 60  0000 C CNN
F 4 "50V" H 8315 5595 40  0000 L CNN "Voltage"
F 5 "X7R" H 8315 5525 40  0000 L CNN "Type"
F 6 "Ceramic capacitor" H 8300 6050 40  0001 L CNN "Description"
F 7 "10%" H 8370 5385 40  0001 C CNN "Tolerance"
F 8 "0805" H 8310 5455 40  0001 L CNN "Size"
	1    8300 5750
	1    0    0    -1  
$EndComp
$Comp
L C C434
U 1 1 5715BC9D
P 8600 5750
F 0 "C434" H 8600 5850 40  0000 L CNN
F 1 "100n" H 8610 5665 40  0000 L CNN
F 2 "MyKiCadLibs-Footprints:SMD-0805" H 8638 5600 30  0001 C CNN
F 3 "" H 8600 5850 60  0000 C CNN
F 4 "50V" H 8615 5595 40  0000 L CNN "Voltage"
F 5 "X7R" H 8615 5525 40  0000 L CNN "Type"
F 6 "Ceramic capacitor" H 8600 6050 40  0001 L CNN "Description"
F 7 "10%" H 8670 5385 40  0001 C CNN "Tolerance"
F 8 "0805" H 8610 5455 40  0001 L CNN "Size"
	1    8600 5750
	1    0    0    -1  
$EndComp
$Comp
L C C436
U 1 1 5715BDC9
P 9150 5700
F 0 "C436" H 9150 5800 40  0000 L CNN
F 1 "10u" H 9160 5615 40  0000 L CNN
F 2 "MyKiCadLibs-Footprints:SMD-1206" H 9188 5550 30  0001 C CNN
F 3 "" H 9150 5800 60  0000 C CNN
F 4 "35V" H 9165 5545 40  0000 L CNN "Voltage"
F 5 "X5R" H 9165 5475 40  0000 L CNN "Type"
F 6 "Ceramic capacitor" H 9150 6000 40  0001 L CNN "Description"
F 7 "20%" H 9220 5335 40  0001 C CNN "Tolerance"
F 8 "1206" H 9160 5405 40  0000 L CNN "Size"
	1    9150 5700
	1    0    0    -1  
$EndComp
$Comp
L C C438
U 1 1 5715BDD4
P 9400 5700
F 0 "C438" H 9400 5800 40  0000 L CNN
F 1 "100n" H 9410 5615 40  0000 L CNN
F 2 "MyKiCadLibs-Footprints:SMD-0805" H 9438 5550 30  0001 C CNN
F 3 "" H 9400 5800 60  0000 C CNN
F 4 "50V" H 9415 5545 40  0000 L CNN "Voltage"
F 5 "X7R" H 9415 5475 40  0000 L CNN "Type"
F 6 "Ceramic capacitor" H 9400 6000 40  0001 L CNN "Description"
F 7 "10%" H 9470 5335 40  0001 C CNN "Tolerance"
F 8 "0805" H 9410 5405 40  0001 L CNN "Size"
	1    9400 5700
	1    0    0    -1  
$EndComp
$Comp
L C C440
U 1 1 5715BDDF
P 9650 5700
F 0 "C440" H 9650 5800 40  0000 L CNN
F 1 "10n" H 9660 5615 40  0000 L CNN
F 2 "MyKiCadLibs-Footprints:SMD-0805" H 9688 5550 30  0001 C CNN
F 3 "" H 9650 5800 60  0000 C CNN
F 4 "50V" H 9665 5545 40  0000 L CNN "Voltage"
F 5 "X7R" H 9665 5475 40  0000 L CNN "Type"
F 6 "Ceramic capacitor" H 9650 6000 40  0001 L CNN "Description"
F 7 "10%" H 9720 5335 40  0001 C CNN "Tolerance"
F 8 "0805" H 9660 5405 40  0001 L CNN "Size"
	1    9650 5700
	1    0    0    -1  
$EndComp
$Comp
L C C442
U 1 1 5715BEFE
P 10550 4950
F 0 "C442" H 10550 5050 40  0000 L CNN
F 1 "100n" H 10560 4865 40  0000 L CNN
F 2 "MyKiCadLibs-Footprints:SMD-0805" H 10588 4800 30  0001 C CNN
F 3 "" H 10550 5050 60  0000 C CNN
F 4 "50V" H 10565 4795 40  0000 L CNN "Voltage"
F 5 "X7R" H 10565 4725 40  0000 L CNN "Type"
F 6 "Ceramic capacitor" H 10550 5250 40  0001 L CNN "Description"
F 7 "10%" H 10620 4585 40  0001 C CNN "Tolerance"
F 8 "0805" H 10560 4655 40  0001 L CNN "Size"
	1    10550 4950
	1    0    0    -1  
$EndComp
$Comp
L C C444
U 1 1 5715BF09
P 10800 4950
F 0 "C444" H 10800 5050 40  0000 L CNN
F 1 "10n" H 10810 4865 40  0000 L CNN
F 2 "MyKiCadLibs-Footprints:SMD-0805" H 10838 4800 30  0001 C CNN
F 3 "" H 10800 5050 60  0000 C CNN
F 4 "50V" H 10815 4795 40  0000 L CNN "Voltage"
F 5 "X7R" H 10815 4725 40  0000 L CNN "Type"
F 6 "Ceramic capacitor" H 10800 5250 40  0001 L CNN "Description"
F 7 "10%" H 10870 4585 40  0001 C CNN "Tolerance"
F 8 "0805" H 10810 4655 40  0001 L CNN "Size"
	1    10800 4950
	1    0    0    -1  
$EndComp
$Comp
L CP1 C446
U 1 1 5715BF12
P 10250 4950
F 0 "C446" H 10300 5050 50  0000 L CNN
F 1 "47u" H 10300 4850 50  0000 L CNN
F 2 "MyKiCadLibs-Footprints:CAP-TH-D6.3mmP2.5mm" H 10250 4950 60  0001 C CNN
F 3 "" H 10250 4950 60  0000 C CNN
F 4 "10V" H 10375 4770 50  0000 C CNN "Voltage"
F 5 "2.5mm Pitch, 6.3mm Diameter" H 10250 4950 60  0001 C CNN "Size"
F 6 "Aluminium electrolytic low impedance capacitor - eg Panasonic FC or FR parts" H 10250 4950 60  0001 C CNN "Description"
	1    10250 4950
	1    0    0    -1  
$EndComp
$Comp
L R R426
U 1 1 5715BFCB
P 9900 4650
F 0 "R426" V 9820 4650 40  0000 C CNN
F 1 "1k" V 9907 4651 40  0000 C CNN
F 2 "MyKiCadLibs-Footprints:SMD-1206" V 9830 4650 30  0001 C CNN
F 3 "" V 9820 4650 30  0000 C CNN
F 4 "250mW" V 10000 4650 40  0001 C CNN "Power"
F 5 "MELF0204 1% =>250mW or 1206 1% =>250mW" V 10145 4650 40  0001 C CNN "Description"
F 6 "1206" V 10075 4650 40  0001 C CNN "Size"
F 7 "1%" V 10225 4650 40  0001 C CNN "Tolerance"
	1    9900 4650
	0    1    -1   0   
$EndComp
$EndSCHEMATC
